0 0 1
1 0 1
2 0 1
3 0 1
4 0 1
5 0 1
6 0 1
7 0 1
8 0 1
9 0 1
10 0 1
11 0 1
12 0 1
13 0 1
14 0 1
15 0 1
16 0 1
17 0 1
18 0 1
19 0 1
20 0 1
21 0 1
22 0 1
23 0 1
24 0 1
25 0 1
26 0 1
27 0 1
28 0 1
29 0 1
30 0 1
31 0 1
32 0 1
33 0 1
34 0 1
35 0 1
36 0 1
37 0 1
38 0 1
39 0 1
40 0 1
41 0 1
42 0 1
43 0 1
44 0 1
45 0 1
46 0 1
47 0 1
48 0 1
49 0 1
50 0 1
51 0 1
52 0 1
53 0 1
54 0 1
55 0 1
56 0 1
57 0 1
58 0 1
59 0 1
60 0 1
61 0 1
62 0 1
63 0 1
64 0 1
65 0 1
66 0 1
67 0 1
68 0 1
69 0 1
70 0 1
71 0 1
72 0 1
73 0 1
74 0 1
75 0 1
76 0 1
77 0 1
78 0 1
79 0 1
80 0 1
81 0 1
82 0 1
83 0 1
84 0 1
85 0 1
86 0 1
87 0 1
88 0 1
89 0 1
90 0 1
91 0 1
92 0 1
93 0 1
94 0 1
95 0 1
96 0 1
97 0 1
98 0 1
99 0 1
100 0 1
101 0 1
102 0 1
103 0 1
104 0 1
105 0 1
106 0 1
107 0 1
108 0 1
109 0 1
110 0 1
111 0 1
112 0 1
113 0 1
114 0 1
115 0 1
116 0 1
117 0 1
118 0 1
119 0 1
120 0 1
121 0 1
122 0 1
123 0 1
124 0 1
125 0 1
126 0 1
127 0 1
128 0 1
129 0 1
130 0 1
131 0 1
132 0 1
133 0 1
134 0 1
135 0 1
136 0 1
137 0 1
138 0 1
139 0 1
140 0 1
141 0 1
142 0 1
143 0 1
144 0 1
145 0 1
146 0 1
147 0 1
148 0 1
149 0 1
150 0 1
151 0 1
152 0 1
153 0 1
154 0 1
155 0 1
156 0 1
157 0 1
158 0 1
159 0 1
160 0 1
161 0 1
162 0 1
163 0 1
164 0 1
165 0 1
166 0 1
167 0 1
168 0 1
169 0 1
170 0 1
171 0 1
172 0 1
173 0 1
174 0 1
175 0 1
176 0 1
177 0 1
178 0 1
179 0 1
180 0 1
181 0 1
182 0 1
183 0 1
184 0 1
185 0 1
186 0 1
187 0 1
188 0 1
189 0 1
190 0 1
191 0 1
192 0 1
193 0 1
194 0 1
195 0 1
196 0 1
197 0 1
198 0 1
199 0 1
200 0 1
201 0 1
202 0 1
203 0 1
204 0 1
205 0 1
206 0 1
207 0 1
208 0 1
209 0 1
210 0 1
211 0 1
212 0 1
213 0 1
214 0 1
215 0 1
216 0 1
217 0 1
218 0 1
219 0 1
220 0 1
221 0 1
222 0 1
223 0 1
224 0 1
225 0 1
226 0 1
227 0 1
228 0 1
229 0 1
230 0 1
231 0 1
232 0 1
233 0 1
234 0 1
235 0 1
236 0 1
237 0 1
238 0 1
239 0 1
240 0 1
241 0 1
242 0 1
243 0 1
244 0 1
245 0 1
246 0 1
247 0 1
248 0 1
249 0 1
250 0 1
251 0 1
252 0 1
253 0 1
254 0 1
255 0 1
256 0 1
257 0 1
258 0 1
259 0 1
260 0 1
261 0 1
262 0 1
263 0 1
264 0 1
265 0 1
266 0 1
267 0 1
268 0 1
269 0 1
270 0 1
271 0 1
272 0 1
273 0 1
274 0 1
275 0 1
276 0 1
277 0 1
278 0 1
279 0 1
280 0 1
281 0 1
282 0 1
283 0 1
284 0 1
285 0 1
286 0 1
287 0 1
288 0 1
289 0 1
290 0 1
291 0 1
292 0 1
293 0 1
294 0 1
295 0 1
296 0 1
297 0 1
298 0 1
299 0 1
300 0 1
301 0 1
302 0 1
303 0 1
304 0 1
305 0 1
306 0 1
307 0 1
308 0 1
309 0 1
310 0 1
311 0 1
312 0 1
313 0 1
314 0 1
315 0 1
316 0 1
317 0 1
318 0 1
319 0 1
320 0 1
321 0 1
322 0 1
323 0 1
324 0 1
325 0 1
326 0 1
327 0 1
328 0 1
329 0 1
330 0 1
331 0 1
332 0 1
333 0 1
334 0 1
335 0 1
336 0 1
337 0 1
338 0 1
339 0 1
340 0 1
341 0 1
342 0 1
343 0 1
344 0 1
345 0 1
346 0 1
347 0 1
348 0 1
349 0 1
350 0 1
351 0 1
352 0 1
353 0 1
354 0 1
355 0 1
356 0 1
357 0 1
358 0 1
359 0 1
360 0 1
361 0 1
362 0 1
363 0 1
364 0 1
365 0 1
366 0 1
367 0 1
368 0 1
369 0 1
370 0 1
371 0 1
372 0 1
373 0 1
374 0 1
375 0 1
376 0 1
377 0 1
378 0 1
379 0 1
380 0 1
381 0 1
382 0 1
383 0 1
384 0 1
385 0 1
386 0 1
387 0 1
388 0 1
389 0 1
390 0 1
391 0 1
392 0 1
393 0 1
394 0 1
395 0 1
396 0 1
397 0 1
398 0 1
399 0 1
400 0 1
401 0 1
402 0 1
403 0 1
404 0 1
405 0 1
406 0 1
407 0 1
408 0 1
409 0 1
410 0 1
411 0 1
412 0 1
413 0 1
414 0 1
415 0 1
416 0 1
417 0 1
418 0 1
419 0 1
420 0 1
421 0 1
422 0 1
423 0 1
424 0 1
425 0 1
426 0 1
427 0 1
428 0 1
429 0 1
430 0 1
431 0 1
432 0 1
433 0 1
434 0 1
435 0 1
436 0 1
437 0 1
438 0 1
439 0 1
440 0 1
441 0 1
442 0 1
443 0 1
444 0 1
445 0 1
446 0 1
447 0 1
448 0 1
449 0 1
450 0 1
451 0 1
452 0 1
453 0 1
454 0 1
455 0 1
456 0 1
457 0 1
458 0 1
459 0 1
460 0 1
461 0 1
462 0 1
463 0 1
464 0 1
465 0 1
466 0 1
467 0 1
468 0 1
469 0 1
470 0 1
471 0 1
472 0 1
473 0 1
474 0 1
475 0 1
476 0 1
477 0 1
478 0 1
479 0 1
480 0 1
481 0 1
482 0 1
483 0 1
484 0 1
485 0 1
486 0 1
487 0 1
488 0 1
489 0 1
490 0 1
491 0 1
492 0 1
493 0 1
494 0 1
495 0 1
496 0 1
497 0 1
498 0 1
499 0 1
500 0 1
501 0 1
502 0 1
503 0 1
504 0 1
505 0 1
506 0 1
507 0 1
508 0 1
509 0 1
510 0 1
511 0 1
512 0 1
513 0 1
514 0 1
515 0 1
516 0 1
517 0 1
518 0 1
519 0 1
520 0 1
521 0 1
522 0 1
523 0 1
524 0 1
525 0 1
526 0 1
527 0 1
528 0 1
529 0 1
530 0 1
531 0 1
532 0 1
533 0 1
534 0 1
535 0 1
536 0 1
537 0 1
538 0 1
539 0 1
540 0 1
541 0 1
542 0 1
543 0 1
544 0 1
545 0 1
546 0 1
547 0 1
548 0 1
549 0 1
550 0 1
551 0 1
552 0 1
553 0 1
554 0 1
555 0 1
556 0 1
557 0 1
558 0 1
559 0 1
560 0 1
561 0 1
562 0 1
563 0 1
564 0 1
565 0 1
566 0 1
567 0 1
568 0 1
569 0 1
570 0 1
571 0 1
572 0 1
573 0 1
574 0 1
575 0 1
576 0 1
577 0 1
578 0 1
579 0 1
580 0 1
581 0 1
582 0 1
583 0 1
584 0 1
585 0 1
586 0 1
587 0 1
588 0 1
589 0 1
590 0 1
591 0 1
592 0 1
593 0 1
594 0 1
595 0 1
596 0 1
597 0 1
598 0 1
599 0 1
600 0 1
601 0 1
602 0 1
603 0 1
604 0 1
605 0 1
606 0 1
607 0 1
608 0 1
609 0 1
610 0 1
611 0 1
612 0 1
613 0 1
614 0 1
615 0 1
616 0 1
617 0 1
618 0 1
619 0 1
620 0 1
621 0 1
622 0 1
623 0 1
624 0 1
625 0 1
626 0 1
627 0 1
628 0 1
629 0 1
630 0 1
631 0 1
632 0 1
633 0 1
634 0 1
635 0 1
636 0 1
637 0 1
638 0 1
639 0 1
640 0 1
641 0 1
642 0 1
643 0 1
644 0 1
645 0 1
646 0 1
647 0 1
648 0 1
649 0 1
650 0 1
651 0 1
652 0 1
653 0 1
654 0 1
655 0 1
656 0 1
657 0 1
658 0 1
659 0 1
660 0 1
661 0 1
662 0 1
663 0 1
664 0 1
665 0 1
666 0 1
667 0 1
668 0 1
669 0 1
670 0 1
671 0 1
672 0 1
673 0 1
674 0 1
675 0 1
676 0 1
677 0 1
678 0 1
679 0 1
680 0 1
681 0 1
682 0 1
683 0 1
684 0 1
685 0 1
686 0 1
687 0 1
688 0 1
689 0 1
690 0 1
691 0 1
692 0 1
693 0 1
694 0 1
695 0 1
696 0 1
697 0 1
698 0 1
699 0 1
700 0 1
701 0 1
702 0 1
703 0 1
704 0 1
705 0 1
706 0 1
707 0 1
708 0 1
709 0 1
710 0 1
711 0 1
712 0 1
713 0 1
714 0 1
715 0 1
716 0 1
717 0 1
718 0 1
719 0 1
720 0 1
721 0 1
722 0 1
723 0 1
724 0 1
725 0 1
726 0 1
727 0 1
728 0 1
729 0 1
730 0 1
731 0 1
732 0 1
733 0 1
734 0 1
735 0 1
736 0 1
737 0 1
738 0 1
739 0 1
740 0 1
741 0 1
742 0 1
743 0 1
744 0 1
745 0 1
746 0 1
747 0 1
748 0 1
749 0 1
750 0 1
751 0 1
752 0 1
753 0 1
754 0 1
755 0 1
756 0 1
757 0 1
758 0 1
759 0 1
760 0 1
761 0 1
762 0 1
763 0 1
764 0 1
765 0 1
766 0 1
767 0 1
768 0 1
769 0 1
770 0 1
771 0 1
772 0 1
773 0 1
774 0 1
775 0 1
776 0 1
777 0 1
778 0 1
779 0 1
780 0 1
781 0 1
782 0 1
783 0 1
784 0 1
785 0 1
786 0 1
787 0 1
788 0 1
789 0 1
790 0 1
791 0 1
792 0 1
793 0 1
794 0 1
795 0 1
796 0 1
797 0 1
798 0 1
799 0 1
800 0 1
801 0 1
802 0 1
803 0 1
804 0 1
805 0 1
806 0 1
807 0 1
808 0 1
809 0 1
810 0 1
811 0 1
812 0 1
813 0 1
814 0 1
815 0 1
816 0 1
817 0 1
818 0 1
819 0 1
820 0 1
821 0 1
822 0 1
823 0 1
824 0 1
825 0 1
826 0 1
827 0 1
828 0 1
829 0 1
830 0 1
831 0 1
832 0 1
833 0 1
834 0 1
835 0 1
836 0 1
837 0 1
838 0 1
839 0 1
840 0 1
841 0 1
842 0 1
843 0 1
844 0 1
845 0 1
846 0 1
847 0 1
848 0 1
849 0 1
850 0 1
851 0 1
852 0 1
853 0 1
854 0 1
855 0 1
856 0 1
857 0 1
858 0 1
859 0 1
860 0 1
861 0 1
862 0 1
863 0 1
864 0 1
865 0 1
866 0 1
867 0 1
868 0 1
869 0 1
870 0 1
871 0 1
872 0 1
873 0 1
874 0 1
875 0 1
876 0 1
877 0 1
878 0 1
879 0 1
880 0 1
881 0 1
882 0 1
883 0 1
884 0 1
885 0 1
886 0 1
887 0 1
888 0 1
889 0 1
890 0 1
891 0 1
892 0 1
893 0 1
894 0 1
895 0 1
896 0 1
897 0 1
898 0 1
899 0 1
900 0 1
901 0 1
902 0 1
903 0 1
904 0 1
905 0 1
906 0 1
907 0 1
908 0 1
909 0 1
910 0 1
911 0 1
912 0 1
913 0 1
914 0 1
915 0 1
916 0 1
917 0 1
918 0 1
919 0 1
920 0 1
921 0 1
922 0 1
923 0 1
924 0 1
925 0 1
926 0 1
927 0 1
928 0 1
929 0 1
930 0 1
931 0 1
932 0 1
933 0 1
934 0 1
935 0 1
936 0 1
937 0 1
938 0 1
939 0 1
940 0 1
941 0 1
942 0 1
943 0 1
944 0 1
945 0 1
946 0 1
947 0 1
948 0 1
949 0 1
950 0 1
951 0 1
952 0 1
953 0 1
954 0 1
955 0 1
956 0 1
957 0 1
958 0 1
959 0 1
960 0 1
961 0 1
962 0 1
963 0 1
964 0 1
965 0 1
966 0 1
967 0 1
968 0 1
969 0 1
970 0 1
971 0 1
972 0 1
973 0 1
974 0 1
975 0 1
976 0 1
977 0 1
978 0 1
979 0 1
980 0 1
981 0 1
982 0 1
983 0 1
984 0 1
985 0 1
986 0 1
987 0 1
988 0 1
989 0 1
990 0 1
991 0 1
992 0 1
993 0 1
994 0 1
995 0 1
996 0 1
997 0 1
998 0 1
999 0 1
1000 0 1
1001 0 1
1002 0 1
1003 0 1
1004 0 1
1005 0 1
1006 0 1
1007 0 1
1008 0 1
1009 0 1
1010 0 1
1011 0 1
1012 0 1
1013 0 1
1014 0 1
1015 0 1
1016 0 1
1017 0 1
1018 0 1
1019 0 1
1020 0 1
1021 0 1
1022 0 1
1023 0 1
1024 0 1
1025 0 1
1026 0 1
1027 0 1
1028 0 1
1029 0 1
1030 0 1
1031 0 1
1032 0 1
1033 0 1
1034 0 1
1035 0 1
1036 0 1
1037 0 1
1038 0 1
1039 0 1
1040 0 1
1041 0 1
1042 0 1
1043 0 1
1044 0 1
1045 0 1
1046 0 1
1047 0 1
1048 0 1
1049 0 1
1050 0 1
1051 0 1
1052 0 1
1053 0 1
1054 0 1
1055 0 1
1056 0 1
1057 0 1
1058 0 1
1059 0 1
1060 0 1
1061 0 1
1062 0 1
1063 0 1
1064 0 1
1065 0 1
1066 0 1
1067 0 1
1068 0 1
1069 0 1
1070 0 1
1071 0 1
1072 0 1
1073 0 1
1074 0 1
1075 0 1
1076 0 1
1077 0 1
1078 0 1
1079 0 1
1080 0 1
1081 0 1
1082 0 1
1083 0 1
1084 0 1
1085 0 1
1086 0 1
1087 0 1
1088 0 1
1089 0 1
1090 0 1
1091 0 1
1092 0 1
1093 0 1
1094 0 1
1095 0 1
1096 0 1
1097 0 1
1098 0 1
1099 0 1
1100 0 1
1101 0 1
1102 0 1
1103 0 1
1104 0 1
1105 0 1
1106 0 1
1107 0 1
1108 0 1
1109 0 1
1110 0 1
1111 0 1
1112 0 1
1113 0 1
1114 0 1
1115 0 1
1116 0 1
1117 0 1
1118 0 1
1119 0 1
1120 0 1
1121 0 1
1122 0 1
1123 0 1
1124 0 1
1125 0 1
1126 0 1
1127 0 1
1128 0 1
1129 0 1
1130 0 1
1131 0 1
1132 0 1
1133 0 1
1134 0 1
1135 0 1
1136 0 1
1137 0 1
1138 0 1
1139 0 1
1140 0 1
1141 0 1
1142 0 1
1143 0 1
1144 0 1
1145 0 1
1146 0 1
1147 0 1
1148 0 1
1149 0 1
1150 0 1
1151 0 1
1152 0 1
1153 0 1
1154 0 1
1155 0 1
1156 0 1
1157 0 1
1158 0 1
1159 0 1
1160 0 1
1161 0 1
1162 0 1
1163 0 1
1164 0 1
1165 0 1
1166 0 1
1167 0 1
1168 0 1
1169 0 1
1170 0 1
1171 0 1
1172 0 1
1173 0 1
1174 0 1
1175 0 1
1176 0 1
1177 0 1
1178 0 1
1179 0 1
1180 0 1
1181 0 1
1182 0 1
1183 0 1
1184 0 1
1185 0 1
1186 0 1
1187 0 1
1188 0 1
1189 0 1
1190 0 1
1191 0 1
1192 0 1
1193 0 1
1194 0 1
1195 0 1
1196 0 1
1197 0 1
1198 0 1
1199 0 1
1200 0 1
1201 0 1
1202 0 1
1203 0 1
1204 0 1
1205 0 1
1206 0 1
1207 0 1
1208 0 1
1209 0 1
1210 0 1
1211 0 1
1212 0 1
1213 0 1
1214 0 1
1215 0 1
1216 0 1
1217 0 1
1218 0 1
1219 0 1
1220 0 1
1221 0 1
1222 0 1
1223 0 1
1224 0 1
1225 0 1
1226 0 1
1227 0 1
1228 0 1
1229 0 1
1230 0 1
1231 0 1
1232 0 1
1233 0 1
1234 0 1
1235 0 1
1236 0 1
1237 0 1
1238 0 1
1239 0 1
1240 0 1
1241 0 1
1242 0 1
1243 0 1
1244 0 1
1245 0 1
1246 0 1
1247 0 1
1248 0 1
1249 0 1
1250 0 1
1251 0 1
1252 0 1
1253 0 1
1254 0 1
1255 0 1
1256 0 1
1257 0 1
1258 0 1
1259 0 1
1260 0 1
1261 0 1
1262 0 1
1263 0 1
1264 0 1
1265 0 1
1266 0 1
1267 0 1
1268 0 1
1269 0 1
1270 0 1
1271 0 1
1272 0 1
1273 0 1
1274 0 1
1275 0 1
1276 0 1
1277 0 1
1278 0 1
1279 0 1
1280 0 1
1281 0 1
1282 0 1
1283 0 1
1284 0 1
1285 0 1
1286 0 1
1287 0 1
1288 0 1
1289 0 1
1290 0 1
1291 0 1
1292 0 1
1293 0 1
1294 0 1
1295 0 1
1296 0 1
1297 0 1
1298 0 1
1299 0 1
1300 0 1
1301 0 1
1302 0 1
1303 0 1
1304 0 1
1305 0 1
1306 0 1
1307 0 1
1308 0 1
1309 0 1
1310 0 1
1311 0 1
1312 0 1
1313 0 1
1314 0 1
1315 0 1
1316 0 1
1317 0 1
1318 0 1
1319 0 1
1320 0 1
1321 0 1
1322 0 1
1323 0 1
1324 0 1
1325 0 1
1326 0 1
1327 0 1
1328 0 1
1329 0 1
1330 0 1
1331 0 1
1332 0 1
1333 0 1
1334 0 1
1335 0 1
1336 0 1
1337 0 1
1338 0 1
1339 0 1
1340 0 1
1341 0 1
1342 0 1
1343 0 1
1344 0 1
1345 0 1
1346 0 1
1347 0 1
1348 0 1
1349 0 1
1350 0 1
1351 0 1
1352 0 1
1353 0 1
1354 0 1
1355 0 1
1356 0 1
1357 0 1
1358 0 1
1359 0 1
1360 0 1
1361 0 1
1362 0 1
1363 0 1
1364 0 1
1365 0 1
1366 0 1
1367 0 1
1368 0 1
1369 0 1
1370 0 1
1371 0 1
1372 0 1
1373 0 1
1374 0 1
1375 0 1
1376 0 1
1377 0 1
1378 0 1
1379 0 1
1380 0 1
1381 0 1
1382 0 1
1383 0 1
1384 0 1
1385 0 1
1386 0 1
1387 0 1
1388 0 1
1389 0 1
1390 0 1
1391 0 1
1392 0 1
1393 0 1
1394 0 1
1395 0 1
1396 0 1
1397 0 1
1398 0 1
1399 0 1
1400 0 1
1401 0 1
1402 0 1
1403 0 1
1404 0 1
1405 0 1
1406 0 1
1407 0 1
1408 0 1
1409 0 1
1410 0 1
1411 0 1
1412 0 1
1413 0 1
1414 0 1
1415 0 1
1416 0 1
1417 0 1
1418 0 1
1419 0 1
1420 0 1
1421 0 1
1422 0 1
1423 0 1
1424 0 1
1425 0 1
1426 0 1
1427 0 1
1428 0 1
1429 0 1
1430 0 1
1431 0 1
1432 0 1
1433 0 1
1434 0 1
1435 0 1
1436 0 1
1437 0 1
1438 0 1
1439 0 1
1440 0 1
1441 0 1
1442 0 1
1443 0 1
1444 0 1
1445 0 1
1446 0 1
1447 0 1
1448 0 1
1449 0 1
1450 0 1
1451 0 1
1452 0 1
1453 0 1
1454 0 1
1455 0 1
1456 0 1
1457 0 1
1458 0 1
1459 0 1
1460 0 1
1461 0 1
1462 0 1
1463 0 1
1464 0 1
1465 0 1
1466 0 1
1467 0 1
1468 0 1
1469 0 1
1470 0 1
1471 0 1
1472 0 1
1473 0 1
1474 0 1
1475 0 1
1476 0 1
1477 0 1
1478 0 1
1479 0 1
1480 0 1
1481 0 1
1482 0 1
1483 0 1
1484 0 1
1485 0 1
1486 0 1
1487 0 1
1488 0 1
1489 0 1
1490 0 1
1491 0 1
1492 0 1
1493 0 1
1494 0 1
1495 0 1
1496 0 1
1497 0 1
1498 0 1
1499 0 1
1500 0 1
1501 0 1
1502 0 1
1503 0 1
1504 0 1
1505 0 1
1506 0 1
1507 0 1
1508 0 1
1509 0 1
1510 0 1
1511 0 1
1512 0 1
1513 0 1
1514 0 1
1515 0 1
1516 0 1
1517 0 1
1518 0 1
1519 0 1
1520 0 1
1521 0 1
1522 0 1
1523 0 1
1524 0 1
1525 0 1
1526 0 1
1527 0 1
1528 0 1
1529 0 1
1530 0 1
1531 0 1
1532 0 1
1533 0 1
1534 0 1
1535 0 1
1536 0 1
1537 0 1
1538 0 1
1539 0 1
1540 0 1
1541 0 1
1542 0 1
1543 0 1
1544 0 1
1545 0 1
1546 0 1
1547 0 1
1548 0 1
1549 0 1
1550 0 1
1551 0 1
1552 0 1
1553 0 1
1554 0 1
1555 0 1
1556 0 1
1557 0 1
1558 0 1
1559 0 1
1560 0 1
1561 0 1
1562 0 1
1563 0 1
1564 0 1
1565 0 1
1566 0 1
1567 0 1
1568 0 1
1569 0 1
1570 0 1
1571 0 1
1572 0 1
1573 0 1
1574 0 1
1575 0 1
1576 0 1
1577 0 1
1578 0 1
1579 0 1
1580 0 1
1581 0 1
1582 0 1
1583 0 1
1584 0 1
1585 0 1
1586 0 1
1587 0 1
1588 0 1
1589 0 1
1590 0 1
1591 0 1
1592 0 1
1593 0 1
1594 0 1
1595 0 1
1596 0 1
1597 0 1
1598 0 1
1599 0 1
1600 0 1
1601 0 1
1602 0 1
1603 0 1
1604 0 1
1605 0 1
1606 0 1
1607 0 1
1608 0 1
1609 0 1
1610 0 1
1611 0 1
1612 0 1
1613 0 1
1614 0 1
1615 0 1
1616 0 1
1617 0 1
1618 0 1
1619 0 1
1620 0 1
1621 0 1
1622 0 1
1623 0 1
1624 0 1
1625 0 1
1626 0 1
1627 0 1
1628 0 1
1629 0 1
1630 0 1
1631 0 1
1632 0 1
1633 0 1
1634 0 1
1635 0 1
1636 0 1
1637 0 1
1638 0 1
1639 0 1
1640 0 1
1641 0 1
1642 0 1
1643 0 1
1644 0 1
1645 0 1
1646 0 1
1647 0 1
1648 0 1
1649 0 1
1650 0 1
1651 0 1
1652 0 1
1653 0 1
1654 0 1
1655 0 1
1656 0 1
1657 0 1
1658 0 1
1659 0 1
1660 0 1
1661 0 1
1662 0 1
1663 0 1
1664 0 1
1665 0 1
1666 0 1
1667 0 1
1668 0 1
1669 0 1
1670 0 1
1671 0 1
1672 0 1
1673 0 1
1674 0 1
1675 0 1
1676 0 1
1677 0 1
1678 0 1
1679 0 1
1680 0 1
1681 0 1
1682 0 1
1683 0 1
1684 0 1
1685 0 1
1686 0 1
1687 0 1
1688 0 1
1689 0 1
1690 0 1
1691 0 1
1692 0 1
1693 0 1
1694 0 1
1695 0 1
1696 0 1
1697 0 1
1698 0 1
1699 0 1
1700 0 1
1701 0 1
1702 0 1
1703 0 1
1704 0 1
1705 0 1
1706 0 1
1707 0 1
1708 0 1
1709 0 1
1710 0 1
1711 0 1
1712 0 1
1713 0 1
1714 0 1
1715 0 1
1716 0 1
1717 0 1
1718 0 1
1719 0 1
1720 0 1
1721 0 1
1722 0 1
1723 0 1
1724 0 1
1725 0 1
1726 0 1
1727 0 1
1728 0 1
1729 0 1
1730 0 1
1731 0 1
1732 0 1
1733 0 1
1734 0 1
1735 0 1
1736 0 1
1737 0 1
1738 0 1
1739 0 1
1740 0 1
1741 0 1
1742 0 1
1743 0 1
1744 0 1
1745 0 1
1746 0 1
1747 0 1
1748 0 1
1749 0 1
1750 0 1
1751 0 1
1752 0 1
1753 0 1
1754 0 1
1755 0 1
1756 0 1
1757 0 1
1758 0 1
1759 0 1
1760 0 1
1761 0 1
1762 0 1
1763 0 1
1764 0 1
1765 0 1
1766 0 1
1767 0 1
1768 0 1
1769 0 1
1770 0 1
1771 0 1
1772 0 1
1773 0 1
1774 0 1
1775 0 1
1776 0 1
1777 0 1
1778 0 1
1779 0 1
1780 0 1
1781 0 1
1782 0 1
1783 0 1
1784 0 1
1785 0 1
1786 0 1
1787 0 1
1788 0 1
1789 0 1
1790 0 1
1791 0 1
1792 0 1
1793 0 1
1794 0 1
1795 0 1
1796 0 1
1797 0 1
1798 0 1
1799 0 1
1800 0 1
1801 0 1
1802 0 1
1803 0 1
1804 0 1
1805 0 1
1806 0 1
1807 0 1
1808 0 1
1809 0 1
1810 0 1
1811 0 1
1812 0 1
1813 0 1
1814 0 1
1815 0 1
1816 0 1
1817 0 1
1818 0 1
1819 0 1
1820 0 1
1821 0 1
1822 0 1
1823 0 1
1824 0 1
1825 0 1
1826 0 1
1827 0 1
1828 0 1
1829 0 1
1830 0 1
1831 0 1
1832 0 1
1833 0 1
1834 0 1
1835 0 1
1836 0 1
1837 0 1
1838 0 1
1839 0 1
1840 0 1
1841 0 1
1842 0 1
1843 0 1
1844 0 1
1845 0 1
1846 0 1
1847 0 1
1848 0 1
1849 0 1
1850 0 1
1851 0 1
1852 0 1
1853 0 1
1854 0 1
1855 0 1
1856 0 1
1857 0 1
1858 0 1
1859 0 1
1860 0 1
1861 0 1
1862 0 1
1863 0 1
1864 0 1
1865 0 1
1866 0 1
1867 0 1
1868 0 1
1869 0 1
1870 0 1
1871 0 1
1872 0 1
1873 0 1
1874 0 1
1875 0 1
1876 0 1
1877 0 1
1878 0 1
1879 0 1
1880 0 1
1881 0 1
1882 0 1
1883 0 1
1884 0 1
1885 0 1
1886 0 1
1887 0 1
1888 0 1
1889 0 1
1890 0 1
1891 0 1
1892 0 1
1893 0 1
1894 0 1
1895 0 1
1896 0 1
1897 0 1
1898 0 1
1899 0 1
1900 0 1
1901 0 1
1902 0 1
1903 0 1
1904 0 1
1905 0 1
1906 0 1
1907 0 1
1908 0 1
1909 0 1
1910 0 1
1911 0 1
1912 0 1
1913 0 1
1914 0 1
1915 0 1
1916 0 1
1917 0 1
1918 0 1
1919 0 1
1920 0 1
1921 0 1
1922 0 1
1923 0 1
1924 0 1
1925 0 1
1926 0 1
1927 0 1
1928 0 1
1929 0 1
1930 0 1
1931 0 1
1932 0 1
1933 0 1
1934 0 1
1935 0 1
1936 0 1
1937 0 1
1938 0 1
1939 0 1
1940 0 1
1941 0 1
1942 0 1
1943 0 1
1944 0 1
1945 0 1
1946 0 1
1947 0 1
1948 0 1
1949 0 1
1950 0 1
1951 0 1
1952 0 1
1953 0 1
1954 0 1
1955 0 1
1956 0 1
1957 0 1
1958 0 1
1959 0 1
1960 0 1
1961 0 1
1962 0 1
1963 0 1
1964 0 1
1965 0 1
1966 0 1
1967 0 1
1968 0 1
1969 0 1
1970 0 1
1971 0 1
1972 0 1
1973 0 1
1974 0 1
1975 0 1
1976 0 1
1977 0 1
1978 0 1
1979 0 1
1980 0 1
1981 0 1
1982 0 1
1983 0 1
1984 0 1
1985 0 1
1986 0 1
1987 0 1
1988 0 1
1989 0 1
1990 0 1
1991 0 1
1992 0 1
1993 0 1
1994 0 1
1995 0 1
1996 0 1
1997 0 1
1998 0 1
1999 0 1
2000 0 1
2001 0 1
2002 0 1
2003 0 1
2004 0 1
2005 0 1
2006 0 1
2007 0 1
2008 0 1
2009 0 1
2010 0 1
2011 0 1
2012 0 1
2013 0 1
2014 0 1
2015 0 1
2016 0 1
2017 0 1
2018 0 1
2019 0 1
2020 0 1
2021 0 1
2022 0 1
2023 0 1
2024 0 1
2025 0 1
2026 0 1
2027 0 1
2028 0 1
2029 0 1
2030 0 1
2031 0 1
2032 0 1
2033 0 1
2034 0 1
2035 0 1
2036 0 1
2037 0 1
2038 0 1
2039 0 1
2040 0 1
2041 0 1
2042 0 1
2043 0 1
2044 0 1
2045 0 1
2046 0 1
2047 0 1
2048 0 1
2049 0 1
2050 0 1
2051 0 1
2052 0 1
2053 0 1
2054 0 1
2055 0 1
2056 0 1
2057 0 1
2058 0 1
2059 0 1
2060 0 1
2061 0 1
2062 0 1
2063 0 1
2064 0 1
2065 0 1
2066 0 1
2067 0 1
2068 0 1
2069 0 1
2070 0 1
2071 0 1
2072 0 1
2073 0 1
2074 0 1
2075 0 1
2076 0 1
2077 0 1
2078 0 1
2079 0 1
2080 0 1
2081 0 1
2082 0 1
2083 0 1
2084 0 1
2085 0 1
2086 0 1
2087 0 1
2088 0 1
2089 0 1
2090 0 1
2091 0 1
2092 0 1
2093 0 1
2094 0 1
2095 0 1
2096 0 1
2097 0 1
2098 0 1
2099 0 1
2100 0 1
2101 0 1
2102 0 1
2103 0 1
2104 0 1
2105 0 1
2106 0 1
2107 0 1
2108 0 1
2109 0 1
2110 0 1
2111 0 1
2112 0 1
2113 0 1
2114 0 1
2115 0 1
2116 0 1
2117 0 1
2118 0 1
2119 0 1
2120 0 1
2121 0 1
2122 0 1
2123 0 1
2124 0 1
2125 0 1
2126 0 1
2127 0 1
2128 0 1
2129 0 1
2130 0 1
2131 0 1
2132 0 1
2133 0 1
2134 0 1
2135 0 1
2136 0 1
2137 0 1
2138 0 1
2139 0 1
2140 0 1
2141 0 1
2142 0 1
2143 0 1
2144 0 1
2145 0 1
2146 0 1
2147 0 1
2148 0 1
2149 0 1
2150 0 1
2151 0 1
2152 0 1
2153 0 1
2154 0 1
2155 0 1
2156 0 1
2157 0 1
2158 0 1
2159 0 1
2160 0 1
2161 0 1
2162 0 1
2163 0 1
2164 0 1
2165 0 1
2166 0 1
2167 0 1
2168 0 1
2169 0 1
2170 0 1
2171 0 1
2172 0 1
2173 0 1
2174 0 1
2175 0 1
2176 0 1
2177 0 1
2178 0 1
2179 0 1
2180 0 1
2181 0 1
2182 0 1
2183 0 1
2184 0 1
2185 0 1
2186 0 1
2187 0 1
2188 0 1
2189 0 1
2190 0 1
2191 0 1
2192 0 1
2193 0 1
2194 0 1
2195 0 1
2196 0 1
2197 0 1
2198 0 1
2199 0 1
2200 0 1
2201 0 1
2202 0 1
2203 0 1
2204 0 1
2205 0 1
2206 0 1
2207 0 1
2208 0 1
2209 0 1
2210 0 1
2211 0 1
2212 0 1
2213 0 1
2214 0 1
2215 0 1
2216 0 1
2217 0 1
2218 0 1
2219 0 1
2220 0 1
2221 0 1
2222 0 1
2223 0 1
2224 0 1
2225 0 1
2226 0 1
2227 0 1
2228 0 1
2229 0 1
2230 0 1
2231 0 1
2232 0 1
2233 0 1
2234 0 1
2235 0 1
2236 0 1
2237 0 1
2238 0 1
2239 0 1
2240 0 1
2241 0 1
2242 0 1
2243 0 1
2244 0 1
2245 0 1
2246 0 1
2247 0 1
2248 0 1
2249 0 1
2250 0 1
2251 0 1
2252 0 1
2253 0 1
2254 0 1
2255 0 1
2256 0 1
2257 0 1
2258 0 1
2259 0 1
2260 0 1
2261 0 1
2262 0 1
2263 0 1
2264 0 1
2265 0 1
2266 0 1
2267 0 1
2268 0 1
2269 0 1
2270 0 1
2271 0 1
2272 0 1
2273 0 1
2274 0 1
2275 0 1
2276 0 1
2277 0 1
2278 0 1
2279 0 1
2280 0 1
2281 0 1
2282 0 1
2283 0 1
2284 0 1
2285 0 1
2286 0 1
2287 0 1
2288 0 1
2289 0 1
2290 0 1
2291 0 1
2292 0 1
2293 0 1
2294 0 1
2295 0 1
2296 0 1
2297 0 1
2298 0 1
2299 0 1
2300 0 1
2301 0 1
2302 0 1
2303 0 1
2304 0 1
2305 0 1
2306 0 1
2307 0 1
2308 0 1
2309 0 1
2310 0 1
2311 0 1
2312 0 1
2313 0 1
2314 0 1
2315 0 1
2316 0 1
2317 0 1
2318 0 1
2319 0 1
2320 0 1
2321 0 1
2322 0 1
2323 0 1
2324 0 1
2325 0 1
2326 0 1
2327 0 1
2328 0 1
2329 0 1
2330 0 1
2331 0 1
2332 0 1
2333 0 1
2334 0 1
2335 0 1
2336 0 1
2337 0 1
2338 0 1
2339 0 1
2340 0 1
2341 0 1
2342 0 1
2343 0 1
2344 0 1
2345 0 1
2346 0 1
2347 0 1
2348 0 1
2349 0 1
2350 0 1
2351 0 1
2352 0 1
2353 0 1
2354 0 1
2355 0 1
2356 0 1
2357 0 1
2358 0 1
2359 0 1
2360 0 1
2361 0 1
2362 0 1
2363 0 1
2364 0 1
2365 0 1
2366 0 1
2367 0 1
2368 0 1
2369 0 1
2370 0 1
2371 0 1
2372 0 1
2373 0 1
2374 0 1
2375 0 1
2376 0 1
2377 0 1
2378 0 1
2379 0 1
2380 0 1
2381 0 1
2382 0 1
2383 0 1
2384 0 1
2385 0 1
2386 0 1
2387 0 1
2388 0 1
2389 0 1
2390 0 1
2391 0 1
2392 0 1
2393 0 1
2394 0 1
2395 0 1
2396 0 1
2397 0 1
2398 0 1
2399 0 1
2400 0 1
2401 0 1
2402 0 1
2403 0 1
2404 0 1
2405 0 1
2406 0 1
2407 0 1
2408 0 1
2409 0 1
2410 0 1
2411 0 1
2412 0 1
2413 0 1
2414 0 1
2415 0 1
2416 0 1
2417 0 1
2418 0 1
2419 0 1
2420 0 1
2421 0 1
2422 0 1
2423 0 1
2424 0 1
2425 0 1
2426 0 1
2427 0 1
2428 0 1
2429 0 1
2430 0 1
2431 0 1
2432 0 1
2433 0 1
2434 0 1
2435 0 1
2436 0 1
2437 0 1
2438 0 1
2439 0 1
2440 0 1
2441 0 1
2442 0 1
2443 0 1
2444 0 1
2445 0 1
2446 0 1
2447 0 1
2448 0 1
2449 0 1
2450 0 1
2451 0 1
2452 0 1
2453 0 1
2454 0 1
2455 0 1
2456 0 1
2457 0 1
2458 0 1
2459 0 1
2460 0 1
2461 0 1
2462 0 1
2463 0 1
2464 0 1
2465 0 1
2466 0 1
2467 0 1
2468 0 1
2469 0 1
2470 0 1
2471 0 1
2472 0 1
2473 0 1
2474 0 1
2475 0 1
2476 0 1
2477 0 1
2478 0 1
2479 0 1
2480 0 1
2481 0 1
2482 0 1
2483 0 1
2484 0 1
2485 0 1
2486 0 1
2487 0 1
2488 0 1
2489 0 1
2490 0 1
2491 0 1
2492 0 1
2493 0 1
2494 0 1
2495 0 1
2496 0 1
2497 0 1
2498 0 1
2499 0 1
2500 0 1
2501 0 1
2502 0 1
2503 0 1
2504 0 1
2505 0 1
2506 0 1
2507 0 1
2508 0 1
2509 0 1
2510 0 1
2511 0 1
2512 0 1
2513 0 1
2514 0 1
2515 0 1
2516 0 1
2517 0 1
2518 0 1
2519 0 1
2520 0 1
2521 0 1
2522 0 1
2523 0 1
2524 0 1
2525 0 1
2526 0 1
2527 0 1
2528 0 1
2529 0 1
2530 0 1
2531 0 1
2532 0 1
2533 0 1
2534 0 1
2535 0 1
2536 0 1
2537 0 1
2538 0 1
2539 0 1
2540 0 1
2541 0 1
2542 0 1
2543 0 1
2544 0 1
2545 0 1
2546 0 1
2547 0 1
2548 0 1
2549 0 1
2550 0 1
2551 0 1
2552 0 1
2553 0 1
2554 0 1
2555 0 1
2556 0 1
2557 0 1
2558 0 1
2559 0 1
2560 0 1
2561 0 1
2562 0 1
2563 0 1
2564 0 1
2565 0 1
2566 0 1
2567 0 1
2568 0 1
2569 0 1
2570 0 1
2571 0 1
2572 0 1
2573 0 1
2574 0 1
2575 0 1
2576 0 1
2577 0 1
2578 0 1
2579 0 1
2580 0 1
2581 0 1
2582 0 1
2583 0 1
2584 0 1
2585 0 1
2586 0 1
2587 0 1
2588 0 1
2589 0 1
2590 0 1
2591 0 1
2592 0 1
2593 0 1
2594 0 1
2595 0 1
2596 0 1
2597 0 1
2598 0 1
2599 0 1
2600 0 1
2601 0 1
2602 0 1
2603 0 1
2604 0 1
2605 0 1
2606 0 1
2607 0 1
2608 0 1
2609 0 1
2610 0 1
2611 0 1
2612 0 1
2613 0 1
2614 0 1
2615 0 1
2616 0 1
2617 0 1
2618 0 1
2619 0 1
2620 0 1
2621 0 1
2622 0 1
2623 0 1
2624 0 1
2625 0 1
2626 0 1
2627 0 1
2628 0 1
2629 0 1
2630 0 1
2631 0 1
2632 0 1
2633 0 1
2634 0 1
2635 0 1
2636 0 1
2637 0 1
2638 0 1
2639 0 1
2640 0 1
2641 0 1
2642 0 1
2643 0 1
2644 0 1
2645 0 1
2646 0 1
2647 0 1
2648 0 1
2649 0 1
2650 0 1
2651 0 1
2652 0 1
2653 0 1
2654 0 1
2655 0 1
2656 0 1
2657 0 1
2658 0 1
2659 0 1
2660 0 1
2661 0 1
2662 0 1
2663 0 1
2664 0 1
2665 0 1
2666 0 1
2667 0 1
2668 0 1
2669 0 1
2670 0 1
2671 0 1
2672 0 1
2673 0 1
2674 0 1
2675 0 1
2676 0 1
2677 0 1
2678 0 1
2679 0 1
2680 0 1
2681 0 1
2682 0 1
2683 0 1
2684 0 1
2685 0 1
2686 0 1
2687 0 1
2688 0 1
2689 0 1
2690 0 1
2691 0 1
2692 0 1
2693 0 1
2694 0 1
2695 0 1
2696 0 1
2697 0 1
2698 0 1
2699 0 1
2700 0 1
2701 0 1
2702 0 1
2703 0 1
2704 0 1
2705 0 1
2706 0 1
2707 0 1
2708 0 1
2709 0 1
2710 0 1
2711 0 1
2712 0 1
2713 0 1
2714 0 1
2715 0 1
2716 0 1
2717 0 1
2718 0 1
2719 0 1
2720 0 1
2721 0 1
2722 0 1
2723 0 1
2724 0 1
2725 0 1
2726 0 1
2727 0 1
2728 0 1
2729 0 1
2730 0 1
2731 0 1
2732 0 1
2733 0 1
2734 0 1
2735 0 1
2736 0 1
2737 0 1
2738 0 1
2739 0 1
2740 0 1
2741 0 1
2742 0 1
2743 0 1
2744 0 1
2745 0 1
2746 0 1
2747 0 1
2748 0 1
2749 0 1
2750 0 1
2751 0 1
2752 0 1
2753 0 1
2754 0 1
2755 0 1
2756 0 1
2757 0 1
2758 0 1
2759 0 1
2760 0 1
2761 0 1
2762 0 1
2763 0 1
2764 0 1
2765 0 1
2766 0 1
2767 0 1
2768 0 1
2769 0 1
2770 0 1
2771 0 1
2772 0 1
2773 0 1
2774 0 1
2775 0 1
2776 0 1
2777 0 1
2778 0 1
2779 0 1
2780 0 1
2781 0 1
2782 0 1
2783 0 1
2784 0 1
2785 0 1
2786 0 1
2787 0 1
2788 0 1
2789 0 1
2790 0 1
2791 0 1
2792 0 1
2793 0 1
2794 0 1
2795 0 1
2796 0 1
2797 0 1
2798 0 1
2799 0 1
2800 0 1
2801 0 1
2802 0 1
2803 0 1
2804 0 1
2805 0 1
2806 0 1
2807 0 1
2808 0 1
2809 0 1
2810 0 1
2811 0 1
2812 0 1
2813 0 1
2814 0 1
2815 0 1
2816 0 1
2817 0 1
2818 0 1
2819 0 1
2820 0 1
2821 0 1
2822 0 1
2823 0 1
2824 0 1
2825 0 1
2826 0 1
2827 0 1
2828 0 1
2829 0 1
2830 0 1
2831 0 1
2832 0 1
2833 0 1
2834 0 1
2835 0 1
2836 0 1
2837 0 1
2838 0 1
2839 0 1
2840 0 1
2841 0 1
2842 0 1
2843 0 1
2844 0 1
2845 0 1
2846 0 1
2847 0 1
2848 0 1
2849 0 1
2850 0 1
2851 0 1
2852 0 1
2853 0 1
2854 0 1
2855 0 1
2856 0 1
2857 0 1
2858 0 1
2859 0 1
2860 0 1
2861 0 1
2862 0 1
2863 0 1
2864 0 1
2865 0 1
2866 0 1
2867 0 1
2868 0 1
2869 0 1
2870 0 1
2871 0 1
2872 0 1
2873 0 1
2874 0 1
2875 0 1
2876 0 1
2877 0 1
2878 0 1
2879 0 1
2880 0 1
2881 0 1
2882 0 1
2883 0 1
2884 0 1
2885 0 1
2886 0 1
2887 0 1
2888 0 1
2889 0 1
2890 0 1
2891 0 1
2892 0 1
2893 0 1
2894 0 1
2895 0 1
2896 0 1
2897 0 1
2898 0 1
2899 0 1
2900 0 1
2901 0 1
2902 0 1
2903 0 1
2904 0 1
2905 0 1
2906 0 1
2907 0 1
2908 0 1
2909 0 1
2910 0 1
2911 0 1
2912 0 1
2913 0 1
2914 0 1
2915 0 1
2916 0 1
2917 0 1
2918 0 1
2919 0 1
2920 0 1
2921 0 1
2922 0 1
2923 0 1
2924 0 1
2925 0 1
2926 0 1
2927 0 1
2928 0 1
2929 0 1
2930 0 1
2931 0 1
2932 0 1
2933 0 1
2934 0 1
2935 0 1
2936 0 1
2937 0 1
2938 0 1
2939 0 1
2940 0 1
2941 0 1
2942 0 1
2943 0 1
2944 0 1
2945 0 1
2946 0 1
2947 0 1
2948 0 1
2949 0 1
2950 0 1
2951 0 1
2952 0 1
2953 0 1
2954 0 1
2955 0 1
2956 0 1
2957 0 1
2958 0 1
2959 0 1
2960 0 1
2961 0 1
2962 0 1
2963 0 1
2964 0 1
2965 0 1
2966 0 1
2967 0 1
2968 0 1
2969 0 1
2970 0 1
2971 0 1
2972 0 1
2973 0 1
2974 0 1
2975 0 1
2976 0 1
2977 0 1
2978 0 1
2979 0 1
2980 0 1
2981 0 1
2982 0 1
2983 0 1
2984 0 1
2985 0 1
2986 0 1
2987 0 1
2988 0 1
2989 0 1
2990 0 1
2991 0 1
2992 0 1
2993 0 1
2994 0 1
2995 0 1
2996 0 1
2997 0 1
2998 0 1
2999 0 1
0 1999 1
1 1999 1
2 1999 1
3 1999 1
4 1999 1
5 1999 1
6 1999 1
7 1999 1
8 1999 1
9 1999 1
10 1999 1
11 1999 1
12 1999 1
13 1999 1
14 1999 1
15 1999 1
16 1999 1
17 1999 1
18 1999 1
19 1999 1
20 1999 1
21 1999 1
22 1999 1
23 1999 1
24 1999 1
25 1999 1
26 1999 1
27 1999 1
28 1999 1
29 1999 1
30 1999 1
31 1999 1
32 1999 1
33 1999 1
34 1999 1
35 1999 1
36 1999 1
37 1999 1
38 1999 1
39 1999 1
40 1999 1
41 1999 1
42 1999 1
43 1999 1
44 1999 1
45 1999 1
46 1999 1
47 1999 1
48 1999 1
49 1999 1
50 1999 1
51 1999 1
52 1999 1
53 1999 1
54 1999 1
55 1999 1
56 1999 1
57 1999 1
58 1999 1
59 1999 1
60 1999 1
61 1999 1
62 1999 1
63 1999 1
64 1999 1
65 1999 1
66 1999 1
67 1999 1
68 1999 1
69 1999 1
70 1999 1
71 1999 1
72 1999 1
73 1999 1
74 1999 1
75 1999 1
76 1999 1
77 1999 1
78 1999 1
79 1999 1
80 1999 1
81 1999 1
82 1999 1
83 1999 1
84 1999 1
85 1999 1
86 1999 1
87 1999 1
88 1999 1
89 1999 1
90 1999 1
91 1999 1
92 1999 1
93 1999 1
94 1999 1
95 1999 1
96 1999 1
97 1999 1
98 1999 1
99 1999 1
100 1999 1
101 1999 1
102 1999 1
103 1999 1
104 1999 1
105 1999 1
106 1999 1
107 1999 1
108 1999 1
109 1999 1
110 1999 1
111 1999 1
112 1999 1
113 1999 1
114 1999 1
115 1999 1
116 1999 1
117 1999 1
118 1999 1
119 1999 1
120 1999 1
121 1999 1
122 1999 1
123 1999 1
124 1999 1
125 1999 1
126 1999 1
127 1999 1
128 1999 1
129 1999 1
130 1999 1
131 1999 1
132 1999 1
133 1999 1
134 1999 1
135 1999 1
136 1999 1
137 1999 1
138 1999 1
139 1999 1
140 1999 1
141 1999 1
142 1999 1
143 1999 1
144 1999 1
145 1999 1
146 1999 1
147 1999 1
148 1999 1
149 1999 1
150 1999 1
151 1999 1
152 1999 1
153 1999 1
154 1999 1
155 1999 1
156 1999 1
157 1999 1
158 1999 1
159 1999 1
160 1999 1
161 1999 1
162 1999 1
163 1999 1
164 1999 1
165 1999 1
166 1999 1
167 1999 1
168 1999 1
169 1999 1
170 1999 1
171 1999 1
172 1999 1
173 1999 1
174 1999 1
175 1999 1
176 1999 1
177 1999 1
178 1999 1
179 1999 1
180 1999 1
181 1999 1
182 1999 1
183 1999 1
184 1999 1
185 1999 1
186 1999 1
187 1999 1
188 1999 1
189 1999 1
190 1999 1
191 1999 1
192 1999 1
193 1999 1
194 1999 1
195 1999 1
196 1999 1
197 1999 1
198 1999 1
199 1999 1
200 1999 1
201 1999 1
202 1999 1
203 1999 1
204 1999 1
205 1999 1
206 1999 1
207 1999 1
208 1999 1
209 1999 1
210 1999 1
211 1999 1
212 1999 1
213 1999 1
214 1999 1
215 1999 1
216 1999 1
217 1999 1
218 1999 1
219 1999 1
220 1999 1
221 1999 1
222 1999 1
223 1999 1
224 1999 1
225 1999 1
226 1999 1
227 1999 1
228 1999 1
229 1999 1
230 1999 1
231 1999 1
232 1999 1
233 1999 1
234 1999 1
235 1999 1
236 1999 1
237 1999 1
238 1999 1
239 1999 1
240 1999 1
241 1999 1
242 1999 1
243 1999 1
244 1999 1
245 1999 1
246 1999 1
247 1999 1
248 1999 1
249 1999 1
250 1999 1
251 1999 1
252 1999 1
253 1999 1
254 1999 1
255 1999 1
256 1999 1
257 1999 1
258 1999 1
259 1999 1
260 1999 1
261 1999 1
262 1999 1
263 1999 1
264 1999 1
265 1999 1
266 1999 1
267 1999 1
268 1999 1
269 1999 1
270 1999 1
271 1999 1
272 1999 1
273 1999 1
274 1999 1
275 1999 1
276 1999 1
277 1999 1
278 1999 1
279 1999 1
280 1999 1
281 1999 1
282 1999 1
283 1999 1
284 1999 1
285 1999 1
286 1999 1
287 1999 1
288 1999 1
289 1999 1
290 1999 1
291 1999 1
292 1999 1
293 1999 1
294 1999 1
295 1999 1
296 1999 1
297 1999 1
298 1999 1
299 1999 1
300 1999 1
301 1999 1
302 1999 1
303 1999 1
304 1999 1
305 1999 1
306 1999 1
307 1999 1
308 1999 1
309 1999 1
310 1999 1
311 1999 1
312 1999 1
313 1999 1
314 1999 1
315 1999 1
316 1999 1
317 1999 1
318 1999 1
319 1999 1
320 1999 1
321 1999 1
322 1999 1
323 1999 1
324 1999 1
325 1999 1
326 1999 1
327 1999 1
328 1999 1
329 1999 1
330 1999 1
331 1999 1
332 1999 1
333 1999 1
334 1999 1
335 1999 1
336 1999 1
337 1999 1
338 1999 1
339 1999 1
340 1999 1
341 1999 1
342 1999 1
343 1999 1
344 1999 1
345 1999 1
346 1999 1
347 1999 1
348 1999 1
349 1999 1
350 1999 1
351 1999 1
352 1999 1
353 1999 1
354 1999 1
355 1999 1
356 1999 1
357 1999 1
358 1999 1
359 1999 1
360 1999 1
361 1999 1
362 1999 1
363 1999 1
364 1999 1
365 1999 1
366 1999 1
367 1999 1
368 1999 1
369 1999 1
370 1999 1
371 1999 1
372 1999 1
373 1999 1
374 1999 1
375 1999 1
376 1999 1
377 1999 1
378 1999 1
379 1999 1
380 1999 1
381 1999 1
382 1999 1
383 1999 1
384 1999 1
385 1999 1
386 1999 1
387 1999 1
388 1999 1
389 1999 1
390 1999 1
391 1999 1
392 1999 1
393 1999 1
394 1999 1
395 1999 1
396 1999 1
397 1999 1
398 1999 1
399 1999 1
400 1999 1
401 1999 1
402 1999 1
403 1999 1
404 1999 1
405 1999 1
406 1999 1
407 1999 1
408 1999 1
409 1999 1
410 1999 1
411 1999 1
412 1999 1
413 1999 1
414 1999 1
415 1999 1
416 1999 1
417 1999 1
418 1999 1
419 1999 1
420 1999 1
421 1999 1
422 1999 1
423 1999 1
424 1999 1
425 1999 1
426 1999 1
427 1999 1
428 1999 1
429 1999 1
430 1999 1
431 1999 1
432 1999 1
433 1999 1
434 1999 1
435 1999 1
436 1999 1
437 1999 1
438 1999 1
439 1999 1
440 1999 1
441 1999 1
442 1999 1
443 1999 1
444 1999 1
445 1999 1
446 1999 1
447 1999 1
448 1999 1
449 1999 1
450 1999 1
451 1999 1
452 1999 1
453 1999 1
454 1999 1
455 1999 1
456 1999 1
457 1999 1
458 1999 1
459 1999 1
460 1999 1
461 1999 1
462 1999 1
463 1999 1
464 1999 1
465 1999 1
466 1999 1
467 1999 1
468 1999 1
469 1999 1
470 1999 1
471 1999 1
472 1999 1
473 1999 1
474 1999 1
475 1999 1
476 1999 1
477 1999 1
478 1999 1
479 1999 1
480 1999 1
481 1999 1
482 1999 1
483 1999 1
484 1999 1
485 1999 1
486 1999 1
487 1999 1
488 1999 1
489 1999 1
490 1999 1
491 1999 1
492 1999 1
493 1999 1
494 1999 1
495 1999 1
496 1999 1
497 1999 1
498 1999 1
499 1999 1
500 1999 1
501 1999 1
502 1999 1
503 1999 1
504 1999 1
505 1999 1
506 1999 1
507 1999 1
508 1999 1
509 1999 1
510 1999 1
511 1999 1
512 1999 1
513 1999 1
514 1999 1
515 1999 1
516 1999 1
517 1999 1
518 1999 1
519 1999 1
520 1999 1
521 1999 1
522 1999 1
523 1999 1
524 1999 1
525 1999 1
526 1999 1
527 1999 1
528 1999 1
529 1999 1
530 1999 1
531 1999 1
532 1999 1
533 1999 1
534 1999 1
535 1999 1
536 1999 1
537 1999 1
538 1999 1
539 1999 1
540 1999 1
541 1999 1
542 1999 1
543 1999 1
544 1999 1
545 1999 1
546 1999 1
547 1999 1
548 1999 1
549 1999 1
550 1999 1
551 1999 1
552 1999 1
553 1999 1
554 1999 1
555 1999 1
556 1999 1
557 1999 1
558 1999 1
559 1999 1
560 1999 1
561 1999 1
562 1999 1
563 1999 1
564 1999 1
565 1999 1
566 1999 1
567 1999 1
568 1999 1
569 1999 1
570 1999 1
571 1999 1
572 1999 1
573 1999 1
574 1999 1
575 1999 1
576 1999 1
577 1999 1
578 1999 1
579 1999 1
580 1999 1
581 1999 1
582 1999 1
583 1999 1
584 1999 1
585 1999 1
586 1999 1
587 1999 1
588 1999 1
589 1999 1
590 1999 1
591 1999 1
592 1999 1
593 1999 1
594 1999 1
595 1999 1
596 1999 1
597 1999 1
598 1999 1
599 1999 1
600 1999 1
601 1999 1
602 1999 1
603 1999 1
604 1999 1
605 1999 1
606 1999 1
607 1999 1
608 1999 1
609 1999 1
610 1999 1
611 1999 1
612 1999 1
613 1999 1
614 1999 1
615 1999 1
616 1999 1
617 1999 1
618 1999 1
619 1999 1
620 1999 1
621 1999 1
622 1999 1
623 1999 1
624 1999 1
625 1999 1
626 1999 1
627 1999 1
628 1999 1
629 1999 1
630 1999 1
631 1999 1
632 1999 1
633 1999 1
634 1999 1
635 1999 1
636 1999 1
637 1999 1
638 1999 1
639 1999 1
640 1999 1
641 1999 1
642 1999 1
643 1999 1
644 1999 1
645 1999 1
646 1999 1
647 1999 1
648 1999 1
649 1999 1
650 1999 1
651 1999 1
652 1999 1
653 1999 1
654 1999 1
655 1999 1
656 1999 1
657 1999 1
658 1999 1
659 1999 1
660 1999 1
661 1999 1
662 1999 1
663 1999 1
664 1999 1
665 1999 1
666 1999 1
667 1999 1
668 1999 1
669 1999 1
670 1999 1
671 1999 1
672 1999 1
673 1999 1
674 1999 1
675 1999 1
676 1999 1
677 1999 1
678 1999 1
679 1999 1
680 1999 1
681 1999 1
682 1999 1
683 1999 1
684 1999 1
685 1999 1
686 1999 1
687 1999 1
688 1999 1
689 1999 1
690 1999 1
691 1999 1
692 1999 1
693 1999 1
694 1999 1
695 1999 1
696 1999 1
697 1999 1
698 1999 1
699 1999 1
700 1999 1
701 1999 1
702 1999 1
703 1999 1
704 1999 1
705 1999 1
706 1999 1
707 1999 1
708 1999 1
709 1999 1
710 1999 1
711 1999 1
712 1999 1
713 1999 1
714 1999 1
715 1999 1
716 1999 1
717 1999 1
718 1999 1
719 1999 1
720 1999 1
721 1999 1
722 1999 1
723 1999 1
724 1999 1
725 1999 1
726 1999 1
727 1999 1
728 1999 1
729 1999 1
730 1999 1
731 1999 1
732 1999 1
733 1999 1
734 1999 1
735 1999 1
736 1999 1
737 1999 1
738 1999 1
739 1999 1
740 1999 1
741 1999 1
742 1999 1
743 1999 1
744 1999 1
745 1999 1
746 1999 1
747 1999 1
748 1999 1
749 1999 1
750 1999 1
751 1999 1
752 1999 1
753 1999 1
754 1999 1
755 1999 1
756 1999 1
757 1999 1
758 1999 1
759 1999 1
760 1999 1
761 1999 1
762 1999 1
763 1999 1
764 1999 1
765 1999 1
766 1999 1
767 1999 1
768 1999 1
769 1999 1
770 1999 1
771 1999 1
772 1999 1
773 1999 1
774 1999 1
775 1999 1
776 1999 1
777 1999 1
778 1999 1
779 1999 1
780 1999 1
781 1999 1
782 1999 1
783 1999 1
784 1999 1
785 1999 1
786 1999 1
787 1999 1
788 1999 1
789 1999 1
790 1999 1
791 1999 1
792 1999 1
793 1999 1
794 1999 1
795 1999 1
796 1999 1
797 1999 1
798 1999 1
799 1999 1
800 1999 1
801 1999 1
802 1999 1
803 1999 1
804 1999 1
805 1999 1
806 1999 1
807 1999 1
808 1999 1
809 1999 1
810 1999 1
811 1999 1
812 1999 1
813 1999 1
814 1999 1
815 1999 1
816 1999 1
817 1999 1
818 1999 1
819 1999 1
820 1999 1
821 1999 1
822 1999 1
823 1999 1
824 1999 1
825 1999 1
826 1999 1
827 1999 1
828 1999 1
829 1999 1
830 1999 1
831 1999 1
832 1999 1
833 1999 1
834 1999 1
835 1999 1
836 1999 1
837 1999 1
838 1999 1
839 1999 1
840 1999 1
841 1999 1
842 1999 1
843 1999 1
844 1999 1
845 1999 1
846 1999 1
847 1999 1
848 1999 1
849 1999 1
850 1999 1
851 1999 1
852 1999 1
853 1999 1
854 1999 1
855 1999 1
856 1999 1
857 1999 1
858 1999 1
859 1999 1
860 1999 1
861 1999 1
862 1999 1
863 1999 1
864 1999 1
865 1999 1
866 1999 1
867 1999 1
868 1999 1
869 1999 1
870 1999 1
871 1999 1
872 1999 1
873 1999 1
874 1999 1
875 1999 1
876 1999 1
877 1999 1
878 1999 1
879 1999 1
880 1999 1
881 1999 1
882 1999 1
883 1999 1
884 1999 1
885 1999 1
886 1999 1
887 1999 1
888 1999 1
889 1999 1
890 1999 1
891 1999 1
892 1999 1
893 1999 1
894 1999 1
895 1999 1
896 1999 1
897 1999 1
898 1999 1
899 1999 1
900 1999 1
901 1999 1
902 1999 1
903 1999 1
904 1999 1
905 1999 1
906 1999 1
907 1999 1
908 1999 1
909 1999 1
910 1999 1
911 1999 1
912 1999 1
913 1999 1
914 1999 1
915 1999 1
916 1999 1
917 1999 1
918 1999 1
919 1999 1
920 1999 1
921 1999 1
922 1999 1
923 1999 1
924 1999 1
925 1999 1
926 1999 1
927 1999 1
928 1999 1
929 1999 1
930 1999 1
931 1999 1
932 1999 1
933 1999 1
934 1999 1
935 1999 1
936 1999 1
937 1999 1
938 1999 1
939 1999 1
940 1999 1
941 1999 1
942 1999 1
943 1999 1
944 1999 1
945 1999 1
946 1999 1
947 1999 1
948 1999 1
949 1999 1
950 1999 1
951 1999 1
952 1999 1
953 1999 1
954 1999 1
955 1999 1
956 1999 1
957 1999 1
958 1999 1
959 1999 1
960 1999 1
961 1999 1
962 1999 1
963 1999 1
964 1999 1
965 1999 1
966 1999 1
967 1999 1
968 1999 1
969 1999 1
970 1999 1
971 1999 1
972 1999 1
973 1999 1
974 1999 1
975 1999 1
976 1999 1
977 1999 1
978 1999 1
979 1999 1
980 1999 1
981 1999 1
982 1999 1
983 1999 1
984 1999 1
985 1999 1
986 1999 1
987 1999 1
988 1999 1
989 1999 1
990 1999 1
991 1999 1
992 1999 1
993 1999 1
994 1999 1
995 1999 1
996 1999 1
997 1999 1
998 1999 1
999 1999 1
1000 1999 1
1001 1999 1
1002 1999 1
1003 1999 1
1004 1999 1
1005 1999 1
1006 1999 1
1007 1999 1
1008 1999 1
1009 1999 1
1010 1999 1
1011 1999 1
1012 1999 1
1013 1999 1
1014 1999 1
1015 1999 1
1016 1999 1
1017 1999 1
1018 1999 1
1019 1999 1
1020 1999 1
1021 1999 1
1022 1999 1
1023 1999 1
1024 1999 1
1025 1999 1
1026 1999 1
1027 1999 1
1028 1999 1
1029 1999 1
1030 1999 1
1031 1999 1
1032 1999 1
1033 1999 1
1034 1999 1
1035 1999 1
1036 1999 1
1037 1999 1
1038 1999 1
1039 1999 1
1040 1999 1
1041 1999 1
1042 1999 1
1043 1999 1
1044 1999 1
1045 1999 1
1046 1999 1
1047 1999 1
1048 1999 1
1049 1999 1
1050 1999 1
1051 1999 1
1052 1999 1
1053 1999 1
1054 1999 1
1055 1999 1
1056 1999 1
1057 1999 1
1058 1999 1
1059 1999 1
1060 1999 1
1061 1999 1
1062 1999 1
1063 1999 1
1064 1999 1
1065 1999 1
1066 1999 1
1067 1999 1
1068 1999 1
1069 1999 1
1070 1999 1
1071 1999 1
1072 1999 1
1073 1999 1
1074 1999 1
1075 1999 1
1076 1999 1
1077 1999 1
1078 1999 1
1079 1999 1
1080 1999 1
1081 1999 1
1082 1999 1
1083 1999 1
1084 1999 1
1085 1999 1
1086 1999 1
1087 1999 1
1088 1999 1
1089 1999 1
1090 1999 1
1091 1999 1
1092 1999 1
1093 1999 1
1094 1999 1
1095 1999 1
1096 1999 1
1097 1999 1
1098 1999 1
1099 1999 1
1100 1999 1
1101 1999 1
1102 1999 1
1103 1999 1
1104 1999 1
1105 1999 1
1106 1999 1
1107 1999 1
1108 1999 1
1109 1999 1
1110 1999 1
1111 1999 1
1112 1999 1
1113 1999 1
1114 1999 1
1115 1999 1
1116 1999 1
1117 1999 1
1118 1999 1
1119 1999 1
1120 1999 1
1121 1999 1
1122 1999 1
1123 1999 1
1124 1999 1
1125 1999 1
1126 1999 1
1127 1999 1
1128 1999 1
1129 1999 1
1130 1999 1
1131 1999 1
1132 1999 1
1133 1999 1
1134 1999 1
1135 1999 1
1136 1999 1
1137 1999 1
1138 1999 1
1139 1999 1
1140 1999 1
1141 1999 1
1142 1999 1
1143 1999 1
1144 1999 1
1145 1999 1
1146 1999 1
1147 1999 1
1148 1999 1
1149 1999 1
1150 1999 1
1151 1999 1
1152 1999 1
1153 1999 1
1154 1999 1
1155 1999 1
1156 1999 1
1157 1999 1
1158 1999 1
1159 1999 1
1160 1999 1
1161 1999 1
1162 1999 1
1163 1999 1
1164 1999 1
1165 1999 1
1166 1999 1
1167 1999 1
1168 1999 1
1169 1999 1
1170 1999 1
1171 1999 1
1172 1999 1
1173 1999 1
1174 1999 1
1175 1999 1
1176 1999 1
1177 1999 1
1178 1999 1
1179 1999 1
1180 1999 1
1181 1999 1
1182 1999 1
1183 1999 1
1184 1999 1
1185 1999 1
1186 1999 1
1187 1999 1
1188 1999 1
1189 1999 1
1190 1999 1
1191 1999 1
1192 1999 1
1193 1999 1
1194 1999 1
1195 1999 1
1196 1999 1
1197 1999 1
1198 1999 1
1199 1999 1
1200 1999 1
1201 1999 1
1202 1999 1
1203 1999 1
1204 1999 1
1205 1999 1
1206 1999 1
1207 1999 1
1208 1999 1
1209 1999 1
1210 1999 1
1211 1999 1
1212 1999 1
1213 1999 1
1214 1999 1
1215 1999 1
1216 1999 1
1217 1999 1
1218 1999 1
1219 1999 1
1220 1999 1
1221 1999 1
1222 1999 1
1223 1999 1
1224 1999 1
1225 1999 1
1226 1999 1
1227 1999 1
1228 1999 1
1229 1999 1
1230 1999 1
1231 1999 1
1232 1999 1
1233 1999 1
1234 1999 1
1235 1999 1
1236 1999 1
1237 1999 1
1238 1999 1
1239 1999 1
1240 1999 1
1241 1999 1
1242 1999 1
1243 1999 1
1244 1999 1
1245 1999 1
1246 1999 1
1247 1999 1
1248 1999 1
1249 1999 1
1250 1999 1
1251 1999 1
1252 1999 1
1253 1999 1
1254 1999 1
1255 1999 1
1256 1999 1
1257 1999 1
1258 1999 1
1259 1999 1
1260 1999 1
1261 1999 1
1262 1999 1
1263 1999 1
1264 1999 1
1265 1999 1
1266 1999 1
1267 1999 1
1268 1999 1
1269 1999 1
1270 1999 1
1271 1999 1
1272 1999 1
1273 1999 1
1274 1999 1
1275 1999 1
1276 1999 1
1277 1999 1
1278 1999 1
1279 1999 1
1280 1999 1
1281 1999 1
1282 1999 1
1283 1999 1
1284 1999 1
1285 1999 1
1286 1999 1
1287 1999 1
1288 1999 1
1289 1999 1
1290 1999 1
1291 1999 1
1292 1999 1
1293 1999 1
1294 1999 1
1295 1999 1
1296 1999 1
1297 1999 1
1298 1999 1
1299 1999 1
1300 1999 1
1301 1999 1
1302 1999 1
1303 1999 1
1304 1999 1
1305 1999 1
1306 1999 1
1307 1999 1
1308 1999 1
1309 1999 1
1310 1999 1
1311 1999 1
1312 1999 1
1313 1999 1
1314 1999 1
1315 1999 1
1316 1999 1
1317 1999 1
1318 1999 1
1319 1999 1
1320 1999 1
1321 1999 1
1322 1999 1
1323 1999 1
1324 1999 1
1325 1999 1
1326 1999 1
1327 1999 1
1328 1999 1
1329 1999 1
1330 1999 1
1331 1999 1
1332 1999 1
1333 1999 1
1334 1999 1
1335 1999 1
1336 1999 1
1337 1999 1
1338 1999 1
1339 1999 1
1340 1999 1
1341 1999 1
1342 1999 1
1343 1999 1
1344 1999 1
1345 1999 1
1346 1999 1
1347 1999 1
1348 1999 1
1349 1999 1
1350 1999 1
1351 1999 1
1352 1999 1
1353 1999 1
1354 1999 1
1355 1999 1
1356 1999 1
1357 1999 1
1358 1999 1
1359 1999 1
1360 1999 1
1361 1999 1
1362 1999 1
1363 1999 1
1364 1999 1
1365 1999 1
1366 1999 1
1367 1999 1
1368 1999 1
1369 1999 1
1370 1999 1
1371 1999 1
1372 1999 1
1373 1999 1
1374 1999 1
1375 1999 1
1376 1999 1
1377 1999 1
1378 1999 1
1379 1999 1
1380 1999 1
1381 1999 1
1382 1999 1
1383 1999 1
1384 1999 1
1385 1999 1
1386 1999 1
1387 1999 1
1388 1999 1
1389 1999 1
1390 1999 1
1391 1999 1
1392 1999 1
1393 1999 1
1394 1999 1
1395 1999 1
1396 1999 1
1397 1999 1
1398 1999 1
1399 1999 1
1400 1999 1
1401 1999 1
1402 1999 1
1403 1999 1
1404 1999 1
1405 1999 1
1406 1999 1
1407 1999 1
1408 1999 1
1409 1999 1
1410 1999 1
1411 1999 1
1412 1999 1
1413 1999 1
1414 1999 1
1415 1999 1
1416 1999 1
1417 1999 1
1418 1999 1
1419 1999 1
1420 1999 1
1421 1999 1
1422 1999 1
1423 1999 1
1424 1999 1
1425 1999 1
1426 1999 1
1427 1999 1
1428 1999 1
1429 1999 1
1430 1999 1
1431 1999 1
1432 1999 1
1433 1999 1
1434 1999 1
1435 1999 1
1436 1999 1
1437 1999 1
1438 1999 1
1439 1999 1
1440 1999 1
1441 1999 1
1442 1999 1
1443 1999 1
1444 1999 1
1445 1999 1
1446 1999 1
1447 1999 1
1448 1999 1
1449 1999 1
1450 1999 1
1451 1999 1
1452 1999 1
1453 1999 1
1454 1999 1
1455 1999 1
1456 1999 1
1457 1999 1
1458 1999 1
1459 1999 1
1460 1999 1
1461 1999 1
1462 1999 1
1463 1999 1
1464 1999 1
1465 1999 1
1466 1999 1
1467 1999 1
1468 1999 1
1469 1999 1
1470 1999 1
1471 1999 1
1472 1999 1
1473 1999 1
1474 1999 1
1475 1999 1
1476 1999 1
1477 1999 1
1478 1999 1
1479 1999 1
1480 1999 1
1481 1999 1
1482 1999 1
1483 1999 1
1484 1999 1
1485 1999 1
1486 1999 1
1487 1999 1
1488 1999 1
1489 1999 1
1490 1999 1
1491 1999 1
1492 1999 1
1493 1999 1
1494 1999 1
1495 1999 1
1496 1999 1
1497 1999 1
1498 1999 1
1499 1999 1
1500 1999 1
1501 1999 1
1502 1999 1
1503 1999 1
1504 1999 1
1505 1999 1
1506 1999 1
1507 1999 1
1508 1999 1
1509 1999 1
1510 1999 1
1511 1999 1
1512 1999 1
1513 1999 1
1514 1999 1
1515 1999 1
1516 1999 1
1517 1999 1
1518 1999 1
1519 1999 1
1520 1999 1
1521 1999 1
1522 1999 1
1523 1999 1
1524 1999 1
1525 1999 1
1526 1999 1
1527 1999 1
1528 1999 1
1529 1999 1
1530 1999 1
1531 1999 1
1532 1999 1
1533 1999 1
1534 1999 1
1535 1999 1
1536 1999 1
1537 1999 1
1538 1999 1
1539 1999 1
1540 1999 1
1541 1999 1
1542 1999 1
1543 1999 1
1544 1999 1
1545 1999 1
1546 1999 1
1547 1999 1
1548 1999 1
1549 1999 1
1550 1999 1
1551 1999 1
1552 1999 1
1553 1999 1
1554 1999 1
1555 1999 1
1556 1999 1
1557 1999 1
1558 1999 1
1559 1999 1
1560 1999 1
1561 1999 1
1562 1999 1
1563 1999 1
1564 1999 1
1565 1999 1
1566 1999 1
1567 1999 1
1568 1999 1
1569 1999 1
1570 1999 1
1571 1999 1
1572 1999 1
1573 1999 1
1574 1999 1
1575 1999 1
1576 1999 1
1577 1999 1
1578 1999 1
1579 1999 1
1580 1999 1
1581 1999 1
1582 1999 1
1583 1999 1
1584 1999 1
1585 1999 1
1586 1999 1
1587 1999 1
1588 1999 1
1589 1999 1
1590 1999 1
1591 1999 1
1592 1999 1
1593 1999 1
1594 1999 1
1595 1999 1
1596 1999 1
1597 1999 1
1598 1999 1
1599 1999 1
1600 1999 1
1601 1999 1
1602 1999 1
1603 1999 1
1604 1999 1
1605 1999 1
1606 1999 1
1607 1999 1
1608 1999 1
1609 1999 1
1610 1999 1
1611 1999 1
1612 1999 1
1613 1999 1
1614 1999 1
1615 1999 1
1616 1999 1
1617 1999 1
1618 1999 1
1619 1999 1
1620 1999 1
1621 1999 1
1622 1999 1
1623 1999 1
1624 1999 1
1625 1999 1
1626 1999 1
1627 1999 1
1628 1999 1
1629 1999 1
1630 1999 1
1631 1999 1
1632 1999 1
1633 1999 1
1634 1999 1
1635 1999 1
1636 1999 1
1637 1999 1
1638 1999 1
1639 1999 1
1640 1999 1
1641 1999 1
1642 1999 1
1643 1999 1
1644 1999 1
1645 1999 1
1646 1999 1
1647 1999 1
1648 1999 1
1649 1999 1
1650 1999 1
1651 1999 1
1652 1999 1
1653 1999 1
1654 1999 1
1655 1999 1
1656 1999 1
1657 1999 1
1658 1999 1
1659 1999 1
1660 1999 1
1661 1999 1
1662 1999 1
1663 1999 1
1664 1999 1
1665 1999 1
1666 1999 1
1667 1999 1
1668 1999 1
1669 1999 1
1670 1999 1
1671 1999 1
1672 1999 1
1673 1999 1
1674 1999 1
1675 1999 1
1676 1999 1
1677 1999 1
1678 1999 1
1679 1999 1
1680 1999 1
1681 1999 1
1682 1999 1
1683 1999 1
1684 1999 1
1685 1999 1
1686 1999 1
1687 1999 1
1688 1999 1
1689 1999 1
1690 1999 1
1691 1999 1
1692 1999 1
1693 1999 1
1694 1999 1
1695 1999 1
1696 1999 1
1697 1999 1
1698 1999 1
1699 1999 1
1700 1999 1
1701 1999 1
1702 1999 1
1703 1999 1
1704 1999 1
1705 1999 1
1706 1999 1
1707 1999 1
1708 1999 1
1709 1999 1
1710 1999 1
1711 1999 1
1712 1999 1
1713 1999 1
1714 1999 1
1715 1999 1
1716 1999 1
1717 1999 1
1718 1999 1
1719 1999 1
1720 1999 1
1721 1999 1
1722 1999 1
1723 1999 1
1724 1999 1
1725 1999 1
1726 1999 1
1727 1999 1
1728 1999 1
1729 1999 1
1730 1999 1
1731 1999 1
1732 1999 1
1733 1999 1
1734 1999 1
1735 1999 1
1736 1999 1
1737 1999 1
1738 1999 1
1739 1999 1
1740 1999 1
1741 1999 1
1742 1999 1
1743 1999 1
1744 1999 1
1745 1999 1
1746 1999 1
1747 1999 1
1748 1999 1
1749 1999 1
1750 1999 1
1751 1999 1
1752 1999 1
1753 1999 1
1754 1999 1
1755 1999 1
1756 1999 1
1757 1999 1
1758 1999 1
1759 1999 1
1760 1999 1
1761 1999 1
1762 1999 1
1763 1999 1
1764 1999 1
1765 1999 1
1766 1999 1
1767 1999 1
1768 1999 1
1769 1999 1
1770 1999 1
1771 1999 1
1772 1999 1
1773 1999 1
1774 1999 1
1775 1999 1
1776 1999 1
1777 1999 1
1778 1999 1
1779 1999 1
1780 1999 1
1781 1999 1
1782 1999 1
1783 1999 1
1784 1999 1
1785 1999 1
1786 1999 1
1787 1999 1
1788 1999 1
1789 1999 1
1790 1999 1
1791 1999 1
1792 1999 1
1793 1999 1
1794 1999 1
1795 1999 1
1796 1999 1
1797 1999 1
1798 1999 1
1799 1999 1
1800 1999 1
1801 1999 1
1802 1999 1
1803 1999 1
1804 1999 1
1805 1999 1
1806 1999 1
1807 1999 1
1808 1999 1
1809 1999 1
1810 1999 1
1811 1999 1
1812 1999 1
1813 1999 1
1814 1999 1
1815 1999 1
1816 1999 1
1817 1999 1
1818 1999 1
1819 1999 1
1820 1999 1
1821 1999 1
1822 1999 1
1823 1999 1
1824 1999 1
1825 1999 1
1826 1999 1
1827 1999 1
1828 1999 1
1829 1999 1
1830 1999 1
1831 1999 1
1832 1999 1
1833 1999 1
1834 1999 1
1835 1999 1
1836 1999 1
1837 1999 1
1838 1999 1
1839 1999 1
1840 1999 1
1841 1999 1
1842 1999 1
1843 1999 1
1844 1999 1
1845 1999 1
1846 1999 1
1847 1999 1
1848 1999 1
1849 1999 1
1850 1999 1
1851 1999 1
1852 1999 1
1853 1999 1
1854 1999 1
1855 1999 1
1856 1999 1
1857 1999 1
1858 1999 1
1859 1999 1
1860 1999 1
1861 1999 1
1862 1999 1
1863 1999 1
1864 1999 1
1865 1999 1
1866 1999 1
1867 1999 1
1868 1999 1
1869 1999 1
1870 1999 1
1871 1999 1
1872 1999 1
1873 1999 1
1874 1999 1
1875 1999 1
1876 1999 1
1877 1999 1
1878 1999 1
1879 1999 1
1880 1999 1
1881 1999 1
1882 1999 1
1883 1999 1
1884 1999 1
1885 1999 1
1886 1999 1
1887 1999 1
1888 1999 1
1889 1999 1
1890 1999 1
1891 1999 1
1892 1999 1
1893 1999 1
1894 1999 1
1895 1999 1
1896 1999 1
1897 1999 1
1898 1999 1
1899 1999 1
1900 1999 1
1901 1999 1
1902 1999 1
1903 1999 1
1904 1999 1
1905 1999 1
1906 1999 1
1907 1999 1
1908 1999 1
1909 1999 1
1910 1999 1
1911 1999 1
1912 1999 1
1913 1999 1
1914 1999 1
1915 1999 1
1916 1999 1
1917 1999 1
1918 1999 1
1919 1999 1
1920 1999 1
1921 1999 1
1922 1999 1
1923 1999 1
1924 1999 1
1925 1999 1
1926 1999 1
1927 1999 1
1928 1999 1
1929 1999 1
1930 1999 1
1931 1999 1
1932 1999 1
1933 1999 1
1934 1999 1
1935 1999 1
1936 1999 1
1937 1999 1
1938 1999 1
1939 1999 1
1940 1999 1
1941 1999 1
1942 1999 1
1943 1999 1
1944 1999 1
1945 1999 1
1946 1999 1
1947 1999 1
1948 1999 1
1949 1999 1
1950 1999 1
1951 1999 1
1952 1999 1
1953 1999 1
1954 1999 1
1955 1999 1
1956 1999 1
1957 1999 1
1958 1999 1
1959 1999 1
1960 1999 1
1961 1999 1
1962 1999 1
1963 1999 1
1964 1999 1
1965 1999 1
1966 1999 1
1967 1999 1
1968 1999 1
1969 1999 1
1970 1999 1
1971 1999 1
1972 1999 1
1973 1999 1
1974 1999 1
1975 1999 1
1976 1999 1
1977 1999 1
1978 1999 1
1979 1999 1
1980 1999 1
1981 1999 1
1982 1999 1
1983 1999 1
1984 1999 1
1985 1999 1
1986 1999 1
1987 1999 1
1988 1999 1
1989 1999 1
1990 1999 1
1991 1999 1
1992 1999 1
1993 1999 1
1994 1999 1
1995 1999 1
1996 1999 1
1997 1999 1
1998 1999 1
1999 1999 1
2000 1999 1
2001 1999 1
2002 1999 1
2003 1999 1
2004 1999 1
2005 1999 1
2006 1999 1
2007 1999 1
2008 1999 1
2009 1999 1
2010 1999 1
2011 1999 1
2012 1999 1
2013 1999 1
2014 1999 1
2015 1999 1
2016 1999 1
2017 1999 1
2018 1999 1
2019 1999 1
2020 1999 1
2021 1999 1
2022 1999 1
2023 1999 1
2024 1999 1
2025 1999 1
2026 1999 1
2027 1999 1
2028 1999 1
2029 1999 1
2030 1999 1
2031 1999 1
2032 1999 1
2033 1999 1
2034 1999 1
2035 1999 1
2036 1999 1
2037 1999 1
2038 1999 1
2039 1999 1
2040 1999 1
2041 1999 1
2042 1999 1
2043 1999 1
2044 1999 1
2045 1999 1
2046 1999 1
2047 1999 1
2048 1999 1
2049 1999 1
2050 1999 1
2051 1999 1
2052 1999 1
2053 1999 1
2054 1999 1
2055 1999 1
2056 1999 1
2057 1999 1
2058 1999 1
2059 1999 1
2060 1999 1
2061 1999 1
2062 1999 1
2063 1999 1
2064 1999 1
2065 1999 1
2066 1999 1
2067 1999 1
2068 1999 1
2069 1999 1
2070 1999 1
2071 1999 1
2072 1999 1
2073 1999 1
2074 1999 1
2075 1999 1
2076 1999 1
2077 1999 1
2078 1999 1
2079 1999 1
2080 1999 1
2081 1999 1
2082 1999 1
2083 1999 1
2084 1999 1
2085 1999 1
2086 1999 1
2087 1999 1
2088 1999 1
2089 1999 1
2090 1999 1
2091 1999 1
2092 1999 1
2093 1999 1
2094 1999 1
2095 1999 1
2096 1999 1
2097 1999 1
2098 1999 1
2099 1999 1
2100 1999 1
2101 1999 1
2102 1999 1
2103 1999 1
2104 1999 1
2105 1999 1
2106 1999 1
2107 1999 1
2108 1999 1
2109 1999 1
2110 1999 1
2111 1999 1
2112 1999 1
2113 1999 1
2114 1999 1
2115 1999 1
2116 1999 1
2117 1999 1
2118 1999 1
2119 1999 1
2120 1999 1
2121 1999 1
2122 1999 1
2123 1999 1
2124 1999 1
2125 1999 1
2126 1999 1
2127 1999 1
2128 1999 1
2129 1999 1
2130 1999 1
2131 1999 1
2132 1999 1
2133 1999 1
2134 1999 1
2135 1999 1
2136 1999 1
2137 1999 1
2138 1999 1
2139 1999 1
2140 1999 1
2141 1999 1
2142 1999 1
2143 1999 1
2144 1999 1
2145 1999 1
2146 1999 1
2147 1999 1
2148 1999 1
2149 1999 1
2150 1999 1
2151 1999 1
2152 1999 1
2153 1999 1
2154 1999 1
2155 1999 1
2156 1999 1
2157 1999 1
2158 1999 1
2159 1999 1
2160 1999 1
2161 1999 1
2162 1999 1
2163 1999 1
2164 1999 1
2165 1999 1
2166 1999 1
2167 1999 1
2168 1999 1
2169 1999 1
2170 1999 1
2171 1999 1
2172 1999 1
2173 1999 1
2174 1999 1
2175 1999 1
2176 1999 1
2177 1999 1
2178 1999 1
2179 1999 1
2180 1999 1
2181 1999 1
2182 1999 1
2183 1999 1
2184 1999 1
2185 1999 1
2186 1999 1
2187 1999 1
2188 1999 1
2189 1999 1
2190 1999 1
2191 1999 1
2192 1999 1
2193 1999 1
2194 1999 1
2195 1999 1
2196 1999 1
2197 1999 1
2198 1999 1
2199 1999 1
2200 1999 1
2201 1999 1
2202 1999 1
2203 1999 1
2204 1999 1
2205 1999 1
2206 1999 1
2207 1999 1
2208 1999 1
2209 1999 1
2210 1999 1
2211 1999 1
2212 1999 1
2213 1999 1
2214 1999 1
2215 1999 1
2216 1999 1
2217 1999 1
2218 1999 1
2219 1999 1
2220 1999 1
2221 1999 1
2222 1999 1
2223 1999 1
2224 1999 1
2225 1999 1
2226 1999 1
2227 1999 1
2228 1999 1
2229 1999 1
2230 1999 1
2231 1999 1
2232 1999 1
2233 1999 1
2234 1999 1
2235 1999 1
2236 1999 1
2237 1999 1
2238 1999 1
2239 1999 1
2240 1999 1
2241 1999 1
2242 1999 1
2243 1999 1
2244 1999 1
2245 1999 1
2246 1999 1
2247 1999 1
2248 1999 1
2249 1999 1
2250 1999 1
2251 1999 1
2252 1999 1
2253 1999 1
2254 1999 1
2255 1999 1
2256 1999 1
2257 1999 1
2258 1999 1
2259 1999 1
2260 1999 1
2261 1999 1
2262 1999 1
2263 1999 1
2264 1999 1
2265 1999 1
2266 1999 1
2267 1999 1
2268 1999 1
2269 1999 1
2270 1999 1
2271 1999 1
2272 1999 1
2273 1999 1
2274 1999 1
2275 1999 1
2276 1999 1
2277 1999 1
2278 1999 1
2279 1999 1
2280 1999 1
2281 1999 1
2282 1999 1
2283 1999 1
2284 1999 1
2285 1999 1
2286 1999 1
2287 1999 1
2288 1999 1
2289 1999 1
2290 1999 1
2291 1999 1
2292 1999 1
2293 1999 1
2294 1999 1
2295 1999 1
2296 1999 1
2297 1999 1
2298 1999 1
2299 1999 1
2300 1999 1
2301 1999 1
2302 1999 1
2303 1999 1
2304 1999 1
2305 1999 1
2306 1999 1
2307 1999 1
2308 1999 1
2309 1999 1
2310 1999 1
2311 1999 1
2312 1999 1
2313 1999 1
2314 1999 1
2315 1999 1
2316 1999 1
2317 1999 1
2318 1999 1
2319 1999 1
2320 1999 1
2321 1999 1
2322 1999 1
2323 1999 1
2324 1999 1
2325 1999 1
2326 1999 1
2327 1999 1
2328 1999 1
2329 1999 1
2330 1999 1
2331 1999 1
2332 1999 1
2333 1999 1
2334 1999 1
2335 1999 1
2336 1999 1
2337 1999 1
2338 1999 1
2339 1999 1
2340 1999 1
2341 1999 1
2342 1999 1
2343 1999 1
2344 1999 1
2345 1999 1
2346 1999 1
2347 1999 1
2348 1999 1
2349 1999 1
2350 1999 1
2351 1999 1
2352 1999 1
2353 1999 1
2354 1999 1
2355 1999 1
2356 1999 1
2357 1999 1
2358 1999 1
2359 1999 1
2360 1999 1
2361 1999 1
2362 1999 1
2363 1999 1
2364 1999 1
2365 1999 1
2366 1999 1
2367 1999 1
2368 1999 1
2369 1999 1
2370 1999 1
2371 1999 1
2372 1999 1
2373 1999 1
2374 1999 1
2375 1999 1
2376 1999 1
2377 1999 1
2378 1999 1
2379 1999 1
2380 1999 1
2381 1999 1
2382 1999 1
2383 1999 1
2384 1999 1
2385 1999 1
2386 1999 1
2387 1999 1
2388 1999 1
2389 1999 1
2390 1999 1
2391 1999 1
2392 1999 1
2393 1999 1
2394 1999 1
2395 1999 1
2396 1999 1
2397 1999 1
2398 1999 1
2399 1999 1
2400 1999 1
2401 1999 1
2402 1999 1
2403 1999 1
2404 1999 1
2405 1999 1
2406 1999 1
2407 1999 1
2408 1999 1
2409 1999 1
2410 1999 1
2411 1999 1
2412 1999 1
2413 1999 1
2414 1999 1
2415 1999 1
2416 1999 1
2417 1999 1
2418 1999 1
2419 1999 1
2420 1999 1
2421 1999 1
2422 1999 1
2423 1999 1
2424 1999 1
2425 1999 1
2426 1999 1
2427 1999 1
2428 1999 1
2429 1999 1
2430 1999 1
2431 1999 1
2432 1999 1
2433 1999 1
2434 1999 1
2435 1999 1
2436 1999 1
2437 1999 1
2438 1999 1
2439 1999 1
2440 1999 1
2441 1999 1
2442 1999 1
2443 1999 1
2444 1999 1
2445 1999 1
2446 1999 1
2447 1999 1
2448 1999 1
2449 1999 1
2450 1999 1
2451 1999 1
2452 1999 1
2453 1999 1
2454 1999 1
2455 1999 1
2456 1999 1
2457 1999 1
2458 1999 1
2459 1999 1
2460 1999 1
2461 1999 1
2462 1999 1
2463 1999 1
2464 1999 1
2465 1999 1
2466 1999 1
2467 1999 1
2468 1999 1
2469 1999 1
2470 1999 1
2471 1999 1
2472 1999 1
2473 1999 1
2474 1999 1
2475 1999 1
2476 1999 1
2477 1999 1
2478 1999 1
2479 1999 1
2480 1999 1
2481 1999 1
2482 1999 1
2483 1999 1
2484 1999 1
2485 1999 1
2486 1999 1
2487 1999 1
2488 1999 1
2489 1999 1
2490 1999 1
2491 1999 1
2492 1999 1
2493 1999 1
2494 1999 1
2495 1999 1
2496 1999 1
2497 1999 1
2498 1999 1
2499 1999 1
2500 1999 1
2501 1999 1
2502 1999 1
2503 1999 1
2504 1999 1
2505 1999 1
2506 1999 1
2507 1999 1
2508 1999 1
2509 1999 1
2510 1999 1
2511 1999 1
2512 1999 1
2513 1999 1
2514 1999 1
2515 1999 1
2516 1999 1
2517 1999 1
2518 1999 1
2519 1999 1
2520 1999 1
2521 1999 1
2522 1999 1
2523 1999 1
2524 1999 1
2525 1999 1
2526 1999 1
2527 1999 1
2528 1999 1
2529 1999 1
2530 1999 1
2531 1999 1
2532 1999 1
2533 1999 1
2534 1999 1
2535 1999 1
2536 1999 1
2537 1999 1
2538 1999 1
2539 1999 1
2540 1999 1
2541 1999 1
2542 1999 1
2543 1999 1
2544 1999 1
2545 1999 1
2546 1999 1
2547 1999 1
2548 1999 1
2549 1999 1
2550 1999 1
2551 1999 1
2552 1999 1
2553 1999 1
2554 1999 1
2555 1999 1
2556 1999 1
2557 1999 1
2558 1999 1
2559 1999 1
2560 1999 1
2561 1999 1
2562 1999 1
2563 1999 1
2564 1999 1
2565 1999 1
2566 1999 1
2567 1999 1
2568 1999 1
2569 1999 1
2570 1999 1
2571 1999 1
2572 1999 1
2573 1999 1
2574 1999 1
2575 1999 1
2576 1999 1
2577 1999 1
2578 1999 1
2579 1999 1
2580 1999 1
2581 1999 1
2582 1999 1
2583 1999 1
2584 1999 1
2585 1999 1
2586 1999 1
2587 1999 1
2588 1999 1
2589 1999 1
2590 1999 1
2591 1999 1
2592 1999 1
2593 1999 1
2594 1999 1
2595 1999 1
2596 1999 1
2597 1999 1
2598 1999 1
2599 1999 1
2600 1999 1
2601 1999 1
2602 1999 1
2603 1999 1
2604 1999 1
2605 1999 1
2606 1999 1
2607 1999 1
2608 1999 1
2609 1999 1
2610 1999 1
2611 1999 1
2612 1999 1
2613 1999 1
2614 1999 1
2615 1999 1
2616 1999 1
2617 1999 1
2618 1999 1
2619 1999 1
2620 1999 1
2621 1999 1
2622 1999 1
2623 1999 1
2624 1999 1
2625 1999 1
2626 1999 1
2627 1999 1
2628 1999 1
2629 1999 1
2630 1999 1
2631 1999 1
2632 1999 1
2633 1999 1
2634 1999 1
2635 1999 1
2636 1999 1
2637 1999 1
2638 1999 1
2639 1999 1
2640 1999 1
2641 1999 1
2642 1999 1
2643 1999 1
2644 1999 1
2645 1999 1
2646 1999 1
2647 1999 1
2648 1999 1
2649 1999 1
2650 1999 1
2651 1999 1
2652 1999 1
2653 1999 1
2654 1999 1
2655 1999 1
2656 1999 1
2657 1999 1
2658 1999 1
2659 1999 1
2660 1999 1
2661 1999 1
2662 1999 1
2663 1999 1
2664 1999 1
2665 1999 1
2666 1999 1
2667 1999 1
2668 1999 1
2669 1999 1
2670 1999 1
2671 1999 1
2672 1999 1
2673 1999 1
2674 1999 1
2675 1999 1
2676 1999 1
2677 1999 1
2678 1999 1
2679 1999 1
2680 1999 1
2681 1999 1
2682 1999 1
2683 1999 1
2684 1999 1
2685 1999 1
2686 1999 1
2687 1999 1
2688 1999 1
2689 1999 1
2690 1999 1
2691 1999 1
2692 1999 1
2693 1999 1
2694 1999 1
2695 1999 1
2696 1999 1
2697 1999 1
2698 1999 1
2699 1999 1
2700 1999 1
2701 1999 1
2702 1999 1
2703 1999 1
2704 1999 1
2705 1999 1
2706 1999 1
2707 1999 1
2708 1999 1
2709 1999 1
2710 1999 1
2711 1999 1
2712 1999 1
2713 1999 1
2714 1999 1
2715 1999 1
2716 1999 1
2717 1999 1
2718 1999 1
2719 1999 1
2720 1999 1
2721 1999 1
2722 1999 1
2723 1999 1
2724 1999 1
2725 1999 1
2726 1999 1
2727 1999 1
2728 1999 1
2729 1999 1
2730 1999 1
2731 1999 1
2732 1999 1
2733 1999 1
2734 1999 1
2735 1999 1
2736 1999 1
2737 1999 1
2738 1999 1
2739 1999 1
2740 1999 1
2741 1999 1
2742 1999 1
2743 1999 1
2744 1999 1
2745 1999 1
2746 1999 1
2747 1999 1
2748 1999 1
2749 1999 1
2750 1999 1
2751 1999 1
2752 1999 1
2753 1999 1
2754 1999 1
2755 1999 1
2756 1999 1
2757 1999 1
2758 1999 1
2759 1999 1
2760 1999 1
2761 1999 1
2762 1999 1
2763 1999 1
2764 1999 1
2765 1999 1
2766 1999 1
2767 1999 1
2768 1999 1
2769 1999 1
2770 1999 1
2771 1999 1
2772 1999 1
2773 1999 1
2774 1999 1
2775 1999 1
2776 1999 1
2777 1999 1
2778 1999 1
2779 1999 1
2780 1999 1
2781 1999 1
2782 1999 1
2783 1999 1
2784 1999 1
2785 1999 1
2786 1999 1
2787 1999 1
2788 1999 1
2789 1999 1
2790 1999 1
2791 1999 1
2792 1999 1
2793 1999 1
2794 1999 1
2795 1999 1
2796 1999 1
2797 1999 1
2798 1999 1
2799 1999 1
2800 1999 1
2801 1999 1
2802 1999 1
2803 1999 1
2804 1999 1
2805 1999 1
2806 1999 1
2807 1999 1
2808 1999 1
2809 1999 1
2810 1999 1
2811 1999 1
2812 1999 1
2813 1999 1
2814 1999 1
2815 1999 1
2816 1999 1
2817 1999 1
2818 1999 1
2819 1999 1
2820 1999 1
2821 1999 1
2822 1999 1
2823 1999 1
2824 1999 1
2825 1999 1
2826 1999 1
2827 1999 1
2828 1999 1
2829 1999 1
2830 1999 1
2831 1999 1
2832 1999 1
2833 1999 1
2834 1999 1
2835 1999 1
2836 1999 1
2837 1999 1
2838 1999 1
2839 1999 1
2840 1999 1
2841 1999 1
2842 1999 1
2843 1999 1
2844 1999 1
2845 1999 1
2846 1999 1
2847 1999 1
2848 1999 1
2849 1999 1
2850 1999 1
2851 1999 1
2852 1999 1
2853 1999 1
2854 1999 1
2855 1999 1
2856 1999 1
2857 1999 1
2858 1999 1
2859 1999 1
2860 1999 1
2861 1999 1
2862 1999 1
2863 1999 1
2864 1999 1
2865 1999 1
2866 1999 1
2867 1999 1
2868 1999 1
2869 1999 1
2870 1999 1
2871 1999 1
2872 1999 1
2873 1999 1
2874 1999 1
2875 1999 1
2876 1999 1
2877 1999 1
2878 1999 1
2879 1999 1
2880 1999 1
2881 1999 1
2882 1999 1
2883 1999 1
2884 1999 1
2885 1999 1
2886 1999 1
2887 1999 1
2888 1999 1
2889 1999 1
2890 1999 1
2891 1999 1
2892 1999 1
2893 1999 1
2894 1999 1
2895 1999 1
2896 1999 1
2897 1999 1
2898 1999 1
2899 1999 1
2900 1999 1
2901 1999 1
2902 1999 1
2903 1999 1
2904 1999 1
2905 1999 1
2906 1999 1
2907 1999 1
2908 1999 1
2909 1999 1
2910 1999 1
2911 1999 1
2912 1999 1
2913 1999 1
2914 1999 1
2915 1999 1
2916 1999 1
2917 1999 1
2918 1999 1
2919 1999 1
2920 1999 1
2921 1999 1
2922 1999 1
2923 1999 1
2924 1999 1
2925 1999 1
2926 1999 1
2927 1999 1
2928 1999 1
2929 1999 1
2930 1999 1
2931 1999 1
2932 1999 1
2933 1999 1
2934 1999 1
2935 1999 1
2936 1999 1
2937 1999 1
2938 1999 1
2939 1999 1
2940 1999 1
2941 1999 1
2942 1999 1
2943 1999 1
2944 1999 1
2945 1999 1
2946 1999 1
2947 1999 1
2948 1999 1
2949 1999 1
2950 1999 1
2951 1999 1
2952 1999 1
2953 1999 1
2954 1999 1
2955 1999 1
2956 1999 1
2957 1999 1
2958 1999 1
2959 1999 1
2960 1999 1
2961 1999 1
2962 1999 1
2963 1999 1
2964 1999 1
2965 1999 1
2966 1999 1
2967 1999 1
2968 1999 1
2969 1999 1
2970 1999 1
2971 1999 1
2972 1999 1
2973 1999 1
2974 1999 1
2975 1999 1
2976 1999 1
2977 1999 1
2978 1999 1
2979 1999 1
2980 1999 1
2981 1999 1
2982 1999 1
2983 1999 1
2984 1999 1
2985 1999 1
2986 1999 1
2987 1999 1
2988 1999 1
2989 1999 1
2990 1999 1
2991 1999 1
2992 1999 1
2993 1999 1
2994 1999 1
2995 1999 1
2996 1999 1
2997 1999 1
2998 1999 1
2999 1999 1
999 600 1
999 601 1
999 602 1
999 603 1
999 604 1
999 605 1
999 606 1
999 607 1
999 608 1
999 609 1
999 610 1
999 611 1
999 612 1
999 613 1
999 614 1
999 615 1
999 616 1
999 617 1
999 618 1
999 619 1
999 620 1
999 621 1
999 622 1
999 623 1
999 624 1
999 625 1
999 626 1
999 627 1
999 628 1
999 629 1
999 630 1
999 631 1
999 632 1
999 633 1
999 634 1
999 635 1
999 636 1
999 637 1
999 638 1
999 639 1
999 640 1
999 641 1
999 642 1
999 643 1
999 644 1
999 645 1
999 646 1
999 647 1
999 648 1
999 649 1
999 650 1
999 651 1
999 652 1
999 653 1
999 654 1
999 655 1
999 656 1
999 657 1
999 658 1
999 659 1
999 660 1
999 661 1
999 662 1
999 663 1
999 664 1
999 665 1
999 666 1
999 667 1
999 668 1
999 669 1
999 670 1
999 671 1
999 672 1
999 673 1
999 674 1
999 675 1
999 676 1
999 677 1
999 678 1
999 679 1
999 680 1
999 681 1
999 682 1
999 683 1
999 684 1
999 685 1
999 686 1
999 687 1
999 688 1
999 689 1
999 690 1
999 691 1
999 692 1
999 693 1
999 694 1
999 695 1
999 696 1
999 697 1
999 698 1
999 699 1
999 700 1
999 701 1
999 702 1
999 703 1
999 704 1
999 705 1
999 706 1
999 707 1
999 708 1
999 709 1
999 710 1
999 711 1
999 712 1
999 713 1
999 714 1
999 715 1
999 716 1
999 717 1
999 718 1
999 719 1
999 720 1
999 721 1
999 722 1
999 723 1
999 724 1
999 725 1
999 726 1
999 727 1
999 728 1
999 729 1
999 730 1
999 731 1
999 732 1
999 733 1
999 734 1
999 735 1
999 736 1
999 737 1
999 738 1
999 739 1
999 740 1
999 741 1
999 742 1
999 743 1
999 744 1
999 745 1
999 746 1
999 747 1
999 748 1
999 749 1
999 750 1
999 751 1
999 752 1
999 753 1
999 754 1
999 755 1
999 756 1
999 757 1
999 758 1
999 759 1
999 760 1
999 761 1
999 762 1
999 763 1
999 764 1
999 765 1
999 766 1
999 767 1
999 768 1
999 769 1
999 770 1
999 771 1
999 772 1
999 773 1
999 774 1
999 775 1
999 776 1
999 777 1
999 778 1
999 779 1
999 780 1
999 781 1
999 782 1
999 783 1
999 784 1
999 785 1
999 786 1
999 787 1
999 788 1
999 789 1
999 790 1
999 791 1
999 792 1
999 793 1
999 794 1
999 795 1
999 796 1
999 797 1
999 798 1
999 799 1
999 800 1
999 801 1
999 802 1
999 803 1
999 804 1
999 805 1
999 806 1
999 807 1
999 808 1
999 809 1
999 810 1
999 811 1
999 812 1
999 813 1
999 814 1
999 815 1
999 816 1
999 817 1
999 818 1
999 819 1
999 820 1
999 821 1
999 822 1
999 823 1
999 824 1
999 825 1
999 826 1
999 827 1
999 828 1
999 829 1
999 830 1
999 831 1
999 832 1
999 833 1
999 834 1
999 835 1
999 836 1
999 837 1
999 838 1
999 839 1
999 840 1
999 841 1
999 842 1
999 843 1
999 844 1
999 845 1
999 846 1
999 847 1
999 848 1
999 849 1
999 850 1
999 851 1
999 852 1
999 853 1
999 854 1
999 855 1
999 856 1
999 857 1
999 858 1
999 859 1
999 860 1
999 861 1
999 862 1
999 863 1
999 864 1
999 865 1
999 866 1
999 867 1
999 868 1
999 869 1
999 870 1
999 871 1
999 872 1
999 873 1
999 874 1
999 875 1
999 876 1
999 877 1
999 878 1
999 879 1
999 880 1
999 881 1
999 882 1
999 883 1
999 884 1
999 885 1
999 886 1
999 887 1
999 888 1
999 889 1
999 890 1
999 891 1
999 892 1
999 893 1
999 894 1
999 895 1
999 896 1
999 897 1
999 898 1
999 899 1
999 900 1
999 901 1
999 902 1
999 903 1
999 904 1
999 905 1
999 906 1
999 907 1
999 908 1
999 909 1
999 910 1
999 911 1
999 912 1
999 913 1
999 914 1
999 915 1
999 916 1
999 917 1
999 918 1
999 919 1
999 920 1
999 921 1
999 922 1
999 923 1
999 924 1
999 925 1
999 926 1
999 927 1
999 928 1
999 929 1
999 930 1
999 931 1
999 932 1
999 933 1
999 934 1
999 935 1
999 936 1
999 937 1
999 938 1
999 939 1
999 940 1
999 941 1
999 942 1
999 943 1
999 944 1
999 945 1
999 946 1
999 947 1
999 948 1
999 949 1
999 950 1
999 951 1
999 952 1
999 953 1
999 954 1
999 955 1
999 956 1
999 957 1
999 958 1
999 959 1
999 960 1
999 961 1
999 962 1
999 963 1
999 964 1
999 965 1
999 966 1
999 967 1
999 968 1
999 969 1
999 970 1
999 971 1
999 972 1
999 973 1
999 974 1
999 975 1
999 976 1
999 977 1
999 978 1
999 979 1
999 980 1
999 981 1
999 982 1
999 983 1
999 984 1
999 985 1
999 986 1
999 987 1
999 988 1
999 989 1
999 990 1
999 991 1
999 992 1
999 993 1
999 994 1
999 995 1
999 996 1
999 997 1
999 998 1
999 999 1
999 1000 1
999 1001 1
999 1002 1
999 1003 1
999 1004 1
999 1005 1
999 1006 1
999 1007 1
999 1008 1
999 1009 1
999 1010 1
999 1011 1
999 1012 1
999 1013 1
999 1014 1
999 1015 1
999 1016 1
999 1017 1
999 1018 1
999 1019 1
999 1020 1
999 1021 1
999 1022 1
999 1023 1
999 1024 1
999 1025 1
999 1026 1
999 1027 1
999 1028 1
999 1029 1
999 1030 1
999 1031 1
999 1032 1
999 1033 1
999 1034 1
999 1035 1
999 1036 1
999 1037 1
999 1038 1
999 1039 1
999 1040 1
999 1041 1
999 1042 1
999 1043 1
999 1044 1
999 1045 1
999 1046 1
999 1047 1
999 1048 1
999 1049 1
999 1050 1
999 1051 1
999 1052 1
999 1053 1
999 1054 1
999 1055 1
999 1056 1
999 1057 1
999 1058 1
999 1059 1
999 1060 1
999 1061 1
999 1062 1
999 1063 1
999 1064 1
999 1065 1
999 1066 1
999 1067 1
999 1068 1
999 1069 1
999 1070 1
999 1071 1
999 1072 1
999 1073 1
999 1074 1
999 1075 1
999 1076 1
999 1077 1
999 1078 1
999 1079 1
999 1080 1
999 1081 1
999 1082 1
999 1083 1
999 1084 1
999 1085 1
999 1086 1
999 1087 1
999 1088 1
999 1089 1
999 1090 1
999 1091 1
999 1092 1
999 1093 1
999 1094 1
999 1095 1
999 1096 1
999 1097 1
999 1098 1
999 1099 1
999 1100 1
999 1101 1
999 1102 1
999 1103 1
999 1104 1
999 1105 1
999 1106 1
999 1107 1
999 1108 1
999 1109 1
999 1110 1
999 1111 1
999 1112 1
999 1113 1
999 1114 1
999 1115 1
999 1116 1
999 1117 1
999 1118 1
999 1119 1
999 1120 1
999 1121 1
999 1122 1
999 1123 1
999 1124 1
999 1125 1
999 1126 1
999 1127 1
999 1128 1
999 1129 1
999 1130 1
999 1131 1
999 1132 1
999 1133 1
999 1134 1
999 1135 1
999 1136 1
999 1137 1
999 1138 1
999 1139 1
999 1140 1
999 1141 1
999 1142 1
999 1143 1
999 1144 1
999 1145 1
999 1146 1
999 1147 1
999 1148 1
999 1149 1
999 1150 1
999 1151 1
999 1152 1
999 1153 1
999 1154 1
999 1155 1
999 1156 1
999 1157 1
999 1158 1
999 1159 1
999 1160 1
999 1161 1
999 1162 1
999 1163 1
999 1164 1
999 1165 1
999 1166 1
999 1167 1
999 1168 1
999 1169 1
999 1170 1
999 1171 1
999 1172 1
999 1173 1
999 1174 1
999 1175 1
999 1176 1
999 1177 1
999 1178 1
999 1179 1
999 1180 1
999 1181 1
999 1182 1
999 1183 1
999 1184 1
999 1185 1
999 1186 1
999 1187 1
999 1188 1
999 1189 1
999 1190 1
999 1191 1
999 1192 1
999 1193 1
999 1194 1
999 1195 1
999 1196 1
999 1197 1
999 1198 1
999 1199 1
999 1200 1
999 1201 1
999 1202 1
999 1203 1
999 1204 1
999 1205 1
999 1206 1
999 1207 1
999 1208 1
999 1209 1
